<?xml version='1.0' encoding='UTF-8' ?>
<svg xmlns='http://www.w3.org/2000/svg' xmlns:xlink='http://www.w3.org/1999/xlink' viewBox='0 0 720.00 504.00'>
<defs>
  <style type='text/css'><![CDATA[
    line, polyline, polygon, path, rect, circle {
      fill: none;
      stroke: #000000;
      stroke-linecap: round;
      stroke-linejoin: round;
      stroke-miterlimit: 10.00;
    }
  ]]></style>
</defs>
<rect width='100%' height='100%' style='stroke: none; fill: #FFFFFF;'/>
<rect x='0.000000000000064' y='0.00' width='720.00' height='504.00' style='stroke-width: 1.94; stroke: #FFFFFF; fill: #FFFFFF;' />
<defs>
  <clipPath id='cpNTkuNjJ8NzEwLjA0fDQ0Ny44NXw5Ljk2'>
    <rect x='59.62' y='9.96' width='650.42' height='437.89' />
  </clipPath>
</defs>
<rect x='59.62' y='9.96' width='650.42' height='437.89' style='stroke-width: 1.94; stroke: none; fill: #FFFFFF;' clip-path='url(#cpNTkuNjJ8NzEwLjA0fDQ0Ny44NXw5Ljk2)' />
<polyline points='59.62,365.23 710.04,365.23 ' style='stroke-width: 0.97; stroke: #EBEBEB; stroke-linecap: butt;' clip-path='url(#cpNTkuNjJ8NzEwLjA0fDQ0Ny44NXw5Ljk2)' />
<polyline points='59.62,239.80 710.04,239.80 ' style='stroke-width: 0.97; stroke: #EBEBEB; stroke-linecap: butt;' clip-path='url(#cpNTkuNjJ8NzEwLjA0fDQ0Ny44NXw5Ljk2)' />
<polyline points='59.62,114.37 710.04,114.37 ' style='stroke-width: 0.97; stroke: #EBEBEB; stroke-linecap: butt;' clip-path='url(#cpNTkuNjJ8NzEwLjA0fDQ0Ny44NXw5Ljk2)' />
<polyline points='59.62,427.95 710.04,427.95 ' style='stroke-width: 1.94; stroke: #EBEBEB; stroke-linecap: butt;' clip-path='url(#cpNTkuNjJ8NzEwLjA0fDQ0Ny44NXw5Ljk2)' />
<polyline points='59.62,302.52 710.04,302.52 ' style='stroke-width: 1.94; stroke: #EBEBEB; stroke-linecap: butt;' clip-path='url(#cpNTkuNjJ8NzEwLjA0fDQ0Ny44NXw5Ljk2)' />
<polyline points='59.62,177.09 710.04,177.09 ' style='stroke-width: 1.94; stroke: #EBEBEB; stroke-linecap: butt;' clip-path='url(#cpNTkuNjJ8NzEwLjA0fDQ0Ny44NXw5Ljk2)' />
<polyline points='59.62,51.66 710.04,51.66 ' style='stroke-width: 1.94; stroke: #EBEBEB; stroke-linecap: butt;' clip-path='url(#cpNTkuNjJ8NzEwLjA0fDQ0Ny44NXw5Ljk2)' />
<polyline points='122.56,447.85 122.56,9.96 ' style='stroke-width: 1.94; stroke: #EBEBEB; stroke-linecap: butt;' clip-path='url(#cpNTkuNjJ8NzEwLjA0fDQ0Ny44NXw5Ljk2)' />
<polyline points='227.47,447.85 227.47,9.96 ' style='stroke-width: 1.94; stroke: #EBEBEB; stroke-linecap: butt;' clip-path='url(#cpNTkuNjJ8NzEwLjA0fDQ0Ny44NXw5Ljk2)' />
<polyline points='332.37,447.85 332.37,9.96 ' style='stroke-width: 1.94; stroke: #EBEBEB; stroke-linecap: butt;' clip-path='url(#cpNTkuNjJ8NzEwLjA0fDQ0Ny44NXw5Ljk2)' />
<polyline points='437.28,447.85 437.28,9.96 ' style='stroke-width: 1.94; stroke: #EBEBEB; stroke-linecap: butt;' clip-path='url(#cpNTkuNjJ8NzEwLjA0fDQ0Ny44NXw5Ljk2)' />
<polyline points='542.19,447.85 542.19,9.96 ' style='stroke-width: 1.94; stroke: #EBEBEB; stroke-linecap: butt;' clip-path='url(#cpNTkuNjJ8NzEwLjA0fDQ0Ny44NXw5Ljk2)' />
<polyline points='647.09,447.85 647.09,9.96 ' style='stroke-width: 1.94; stroke: #EBEBEB; stroke-linecap: butt;' clip-path='url(#cpNTkuNjJ8NzEwLjA0fDQ0Ny44NXw5Ljk2)' />
<rect x='75.35' y='427.29' width='94.42' height='0.66' style='stroke-width: 1.07; stroke: none; stroke-linecap: square; stroke-linejoin: miter; fill: #595959;' clip-path='url(#cpNTkuNjJ8NzEwLjA0fDQ0Ny44NXw5Ljk2)' />
<rect x='180.26' y='427.95' width='94.42' height='0.00' style='stroke-width: 1.07; stroke: none; stroke-linecap: square; stroke-linejoin: miter; fill: #595959;' clip-path='url(#cpNTkuNjJ8NzEwLjA0fDQ0Ny44NXw5Ljk2)' />
<rect x='285.17' y='427.48' width='94.42' height='0.46' style='stroke-width: 1.07; stroke: none; stroke-linecap: square; stroke-linejoin: miter; fill: #595959;' clip-path='url(#cpNTkuNjJ8NzEwLjA0fDQ0Ny44NXw5Ljk2)' />
<rect x='390.07' y='421.75' width='94.42' height='6.19' style='stroke-width: 1.07; stroke: none; stroke-linecap: square; stroke-linejoin: miter; fill: #595959;' clip-path='url(#cpNTkuNjJ8NzEwLjA0fDQ0Ny44NXw5Ljk2)' />
<rect x='494.98' y='327.50' width='94.42' height='100.44' style='stroke-width: 1.07; stroke: none; stroke-linecap: square; stroke-linejoin: miter; fill: #595959;' clip-path='url(#cpNTkuNjJ8NzEwLjA0fDQ0Ny44NXw5Ljk2)' />
<rect x='599.89' y='96.21' width='94.42' height='331.73' style='stroke-width: 1.07; stroke: none; stroke-linecap: square; stroke-linejoin: miter; fill: #595959;' clip-path='url(#cpNTkuNjJ8NzEwLjA0fDQ0Ny44NXw5Ljk2)' />
<g clip-path='url(#cpNTkuNjJ8NzEwLjA0fDQ0Ny44NXw5Ljk2)'><text x='105.95' y='414.34' style='font-size: 17.07px; font-family: Liberation Sans;' textLength='33.23px' lengthAdjust='spacingAndGlyphs'>0.05</text></g>
<g clip-path='url(#cpNTkuNjJ8NzEwLjA0fDQ0Ny44NXw5Ljk2)'><text x='222.72' y='415.01' style='font-size: 17.07px; font-family: Liberation Sans;' textLength='9.49px' lengthAdjust='spacingAndGlyphs'>0</text></g>
<g clip-path='url(#cpNTkuNjJ8NzEwLjA0fDQ0Ny44NXw5Ljk2)'><text x='315.76' y='414.54' style='font-size: 17.07px; font-family: Liberation Sans;' textLength='33.23px' lengthAdjust='spacingAndGlyphs'>0.04</text></g>
<g clip-path='url(#cpNTkuNjJ8NzEwLjA0fDQ0Ny44NXw5Ljk2)'><text x='420.67' y='408.81' style='font-size: 17.07px; font-family: Liberation Sans;' textLength='33.23px' lengthAdjust='spacingAndGlyphs'>0.49</text></g>
<g clip-path='url(#cpNTkuNjJ8NzEwLjA0fDQ0Ny44NXw5Ljk2)'><text x='525.57' y='314.56' style='font-size: 17.07px; font-family: Liberation Sans;' textLength='33.23px' lengthAdjust='spacingAndGlyphs'>8.01</text></g>
<g clip-path='url(#cpNTkuNjJ8NzEwLjA0fDQ0Ny44NXw5Ljk2)'><text x='625.73' y='83.27' style='font-size: 17.07px; font-family: Liberation Sans;' textLength='42.72px' lengthAdjust='spacingAndGlyphs'>26.45</text></g>
<rect x='59.62' y='9.96' width='650.42' height='437.89' style='stroke-width: 1.94; stroke: #333333;' clip-path='url(#cpNTkuNjJ8NzEwLjA0fDQ0Ny44NXw5Ljk2)' />
<defs>
  <clipPath id='cpMC4wMHw3MjAuMDB8NTA0LjAwfDAuMDA='>
    <rect x='0.00' y='0.00' width='720.00' height='504.00' />
  </clipPath>
</defs>
<g clip-path='url(#cpMC4wMHw3MjAuMDB8NTA0LjAwfDAuMDA=)'><text x='41.75' y='433.45' style='font-size: 16.00px; fill: #4D4D4D; font-family: Liberation Sans;' textLength='8.90px' lengthAdjust='spacingAndGlyphs'>0</text></g>
<g clip-path='url(#cpMC4wMHw3MjAuMDB8NTA0LjAwfDAuMDA=)'><text x='32.85' y='308.02' style='font-size: 16.00px; fill: #4D4D4D; font-family: Liberation Sans;' textLength='17.80px' lengthAdjust='spacingAndGlyphs'>10</text></g>
<g clip-path='url(#cpMC4wMHw3MjAuMDB8NTA0LjAwfDAuMDA=)'><text x='32.85' y='182.59' style='font-size: 16.00px; fill: #4D4D4D; font-family: Liberation Sans;' textLength='17.80px' lengthAdjust='spacingAndGlyphs'>20</text></g>
<g clip-path='url(#cpMC4wMHw3MjAuMDB8NTA0LjAwfDAuMDA=)'><text x='32.85' y='57.16' style='font-size: 16.00px; fill: #4D4D4D; font-family: Liberation Sans;' textLength='17.80px' lengthAdjust='spacingAndGlyphs'>30</text></g>
<polyline points='54.64,427.95 59.62,427.95 ' style='stroke-width: 1.94; stroke: #333333; stroke-linecap: butt;' clip-path='url(#cpMC4wMHw3MjAuMDB8NTA0LjAwfDAuMDA=)' />
<polyline points='54.64,302.52 59.62,302.52 ' style='stroke-width: 1.94; stroke: #333333; stroke-linecap: butt;' clip-path='url(#cpMC4wMHw3MjAuMDB8NTA0LjAwfDAuMDA=)' />
<polyline points='54.64,177.09 59.62,177.09 ' style='stroke-width: 1.94; stroke: #333333; stroke-linecap: butt;' clip-path='url(#cpMC4wMHw3MjAuMDB8NTA0LjAwfDAuMDA=)' />
<polyline points='54.64,51.66 59.62,51.66 ' style='stroke-width: 1.94; stroke: #333333; stroke-linecap: butt;' clip-path='url(#cpMC4wMHw3MjAuMDB8NTA0LjAwfDAuMDA=)' />
<polyline points='122.56,452.83 122.56,447.85 ' style='stroke-width: 1.94; stroke: #333333; stroke-linecap: butt;' clip-path='url(#cpMC4wMHw3MjAuMDB8NTA0LjAwfDAuMDA=)' />
<polyline points='227.47,452.83 227.47,447.85 ' style='stroke-width: 1.94; stroke: #333333; stroke-linecap: butt;' clip-path='url(#cpMC4wMHw3MjAuMDB8NTA0LjAwfDAuMDA=)' />
<polyline points='332.37,452.83 332.37,447.85 ' style='stroke-width: 1.94; stroke: #333333; stroke-linecap: butt;' clip-path='url(#cpMC4wMHw3MjAuMDB8NTA0LjAwfDAuMDA=)' />
<polyline points='437.28,452.83 437.28,447.85 ' style='stroke-width: 1.94; stroke: #333333; stroke-linecap: butt;' clip-path='url(#cpMC4wMHw3MjAuMDB8NTA0LjAwfDAuMDA=)' />
<polyline points='542.19,452.83 542.19,447.85 ' style='stroke-width: 1.94; stroke: #333333; stroke-linecap: butt;' clip-path='url(#cpMC4wMHw3MjAuMDB8NTA0LjAwfDAuMDA=)' />
<polyline points='647.09,452.83 647.09,447.85 ' style='stroke-width: 1.94; stroke: #333333; stroke-linecap: butt;' clip-path='url(#cpMC4wMHw3MjAuMDB8NTA0LjAwfDAuMDA=)' />
<g clip-path='url(#cpMC4wMHw3MjAuMDB8NTA0LjAwfDAuMDA=)'><text x='91.43' y='467.83' style='font-size: 16.00px; fill: #4D4D4D; font-family: Liberation Sans;' textLength='62.27px' lengthAdjust='spacingAndGlyphs'>A00-A04</text></g>
<g clip-path='url(#cpMC4wMHw3MjAuMDB8NTA0LjAwfDAuMDA=)'><text x='196.33' y='467.83' style='font-size: 16.00px; fill: #4D4D4D; font-family: Liberation Sans;' textLength='62.27px' lengthAdjust='spacingAndGlyphs'>A05-A14</text></g>
<g clip-path='url(#cpMC4wMHw3MjAuMDB8NTA0LjAwfDAuMDA=)'><text x='301.24' y='467.83' style='font-size: 16.00px; fill: #4D4D4D; font-family: Liberation Sans;' textLength='62.27px' lengthAdjust='spacingAndGlyphs'>A15-A34</text></g>
<g clip-path='url(#cpMC4wMHw3MjAuMDB8NTA0LjAwfDAuMDA=)'><text x='406.15' y='467.83' style='font-size: 16.00px; fill: #4D4D4D; font-family: Liberation Sans;' textLength='62.27px' lengthAdjust='spacingAndGlyphs'>A35-A59</text></g>
<g clip-path='url(#cpMC4wMHw3MjAuMDB8NTA0LjAwfDAuMDA=)'><text x='511.05' y='467.83' style='font-size: 16.00px; fill: #4D4D4D; font-family: Liberation Sans;' textLength='62.27px' lengthAdjust='spacingAndGlyphs'>A60-A79</text></g>
<g clip-path='url(#cpMC4wMHw3MjAuMDB8NTA0LjAwfDAuMDA=)'><text x='628.19' y='467.83' style='font-size: 16.00px; fill: #4D4D4D; font-family: Liberation Sans;' textLength='37.81px' lengthAdjust='spacingAndGlyphs'>A80+</text></g>
<g clip-path='url(#cpMC4wMHw3MjAuMDB8NTA0LjAwfDAuMDA=)'><text x='328.13' y='489.89' style='font-size: 20.00px; font-family: Liberation Sans;' textLength='113.40px' lengthAdjust='spacingAndGlyphs'>Altersgruppe</text></g>
<g clip-path='url(#cpMC4wMHw3MjAuMDB8NTA0LjAwfDAuMDA=)'><text transform='translate(23.72,315.04) rotate(-90)' style='font-size: 20.00px; font-family: Liberation Sans;' textLength='172.28px' lengthAdjust='spacingAndGlyphs'>Fallsterblichkeit / %</text></g>
</svg>
