<?xml version='1.0' encoding='UTF-8' ?>
<svg xmlns='http://www.w3.org/2000/svg' xmlns:xlink='http://www.w3.org/1999/xlink' viewBox='0 0 720.00 504.00'>
<defs>
  <style type='text/css'><![CDATA[
    line, polyline, polygon, path, rect, circle {
      fill: none;
      stroke: #000000;
      stroke-linecap: round;
      stroke-linejoin: round;
      stroke-miterlimit: 10.00;
    }
  ]]></style>
</defs>
<rect width='100%' height='100%' style='stroke: none; fill: #FFFFFF;'/>
<rect x='0.000000000000064' y='0.00' width='720.00' height='504.00' style='stroke-width: 1.94; stroke: #FFFFFF; fill: #FFFFFF;' />
<defs>
  <clipPath id='cpODYuNzZ8NTc0LjQ4fDQ0Ny44NXw5Ljk2'>
    <rect x='86.76' y='9.96' width='487.72' height='437.89' />
  </clipPath>
</defs>
<rect x='86.76' y='9.96' width='487.72' height='437.89' style='stroke-width: 1.94; stroke: none; fill: #FFFFFF;' clip-path='url(#cpODYuNzZ8NTc0LjQ4fDQ0Ny44NXw5Ljk2)' />
<polyline points='86.76,380.80 574.48,380.80 ' style='stroke-width: 0.97; stroke: #EBEBEB; stroke-linecap: butt;' clip-path='url(#cpODYuNzZ8NTc0LjQ4fDQ0Ny44NXw5Ljk2)' />
<polyline points='86.76,277.10 574.48,277.10 ' style='stroke-width: 0.97; stroke: #EBEBEB; stroke-linecap: butt;' clip-path='url(#cpODYuNzZ8NTc0LjQ4fDQ0Ny44NXw5Ljk2)' />
<polyline points='86.76,173.40 574.48,173.40 ' style='stroke-width: 0.97; stroke: #EBEBEB; stroke-linecap: butt;' clip-path='url(#cpODYuNzZ8NTc0LjQ4fDQ0Ny44NXw5Ljk2)' />
<polyline points='86.76,69.70 574.48,69.70 ' style='stroke-width: 0.97; stroke: #EBEBEB; stroke-linecap: butt;' clip-path='url(#cpODYuNzZ8NTc0LjQ4fDQ0Ny44NXw5Ljk2)' />
<polyline points='178.10,447.85 178.10,9.96 ' style='stroke-width: 0.97; stroke: #EBEBEB; stroke-linecap: butt;' clip-path='url(#cpODYuNzZ8NTc0LjQ4fDQ0Ny44NXw5Ljk2)' />
<polyline points='285.02,447.85 285.02,9.96 ' style='stroke-width: 0.97; stroke: #EBEBEB; stroke-linecap: butt;' clip-path='url(#cpODYuNzZ8NTc0LjQ4fDQ0Ny44NXw5Ljk2)' />
<polyline points='391.93,447.85 391.93,9.96 ' style='stroke-width: 0.97; stroke: #EBEBEB; stroke-linecap: butt;' clip-path='url(#cpODYuNzZ8NTc0LjQ4fDQ0Ny44NXw5Ljk2)' />
<polyline points='498.85,447.85 498.85,9.96 ' style='stroke-width: 0.97; stroke: #EBEBEB; stroke-linecap: butt;' clip-path='url(#cpODYuNzZ8NTc0LjQ4fDQ0Ny44NXw5Ljk2)' />
<polyline points='86.76,432.65 574.48,432.65 ' style='stroke-width: 1.94; stroke: #EBEBEB; stroke-linecap: butt;' clip-path='url(#cpODYuNzZ8NTc0LjQ4fDQ0Ny44NXw5Ljk2)' />
<polyline points='86.76,328.95 574.48,328.95 ' style='stroke-width: 1.94; stroke: #EBEBEB; stroke-linecap: butt;' clip-path='url(#cpODYuNzZ8NTc0LjQ4fDQ0Ny44NXw5Ljk2)' />
<polyline points='86.76,225.25 574.48,225.25 ' style='stroke-width: 1.94; stroke: #EBEBEB; stroke-linecap: butt;' clip-path='url(#cpODYuNzZ8NTc0LjQ4fDQ0Ny44NXw5Ljk2)' />
<polyline points='86.76,121.55 574.48,121.55 ' style='stroke-width: 1.94; stroke: #EBEBEB; stroke-linecap: butt;' clip-path='url(#cpODYuNzZ8NTc0LjQ4fDQ0Ny44NXw5Ljk2)' />
<polyline points='86.76,17.86 574.48,17.86 ' style='stroke-width: 1.94; stroke: #EBEBEB; stroke-linecap: butt;' clip-path='url(#cpODYuNzZ8NTc0LjQ4fDQ0Ny44NXw5Ljk2)' />
<polyline points='124.64,447.85 124.64,9.96 ' style='stroke-width: 1.94; stroke: #EBEBEB; stroke-linecap: butt;' clip-path='url(#cpODYuNzZ8NTc0LjQ4fDQ0Ny44NXw5Ljk2)' />
<polyline points='231.56,447.85 231.56,9.96 ' style='stroke-width: 1.94; stroke: #EBEBEB; stroke-linecap: butt;' clip-path='url(#cpODYuNzZ8NTc0LjQ4fDQ0Ny44NXw5Ljk2)' />
<polyline points='338.48,447.85 338.48,9.96 ' style='stroke-width: 1.94; stroke: #EBEBEB; stroke-linecap: butt;' clip-path='url(#cpODYuNzZ8NTc0LjQ4fDQ0Ny44NXw5Ljk2)' />
<polyline points='445.39,447.85 445.39,9.96 ' style='stroke-width: 1.94; stroke: #EBEBEB; stroke-linecap: butt;' clip-path='url(#cpODYuNzZ8NTc0LjQ4fDQ0Ny44NXw5Ljk2)' />
<polyline points='552.31,447.85 552.31,9.96 ' style='stroke-width: 1.94; stroke: #EBEBEB; stroke-linecap: butt;' clip-path='url(#cpODYuNzZ8NTc0LjQ4fDQ0Ny44NXw5Ljk2)' />
<circle cx='126.03' cy='401.98' r='5.69' style='stroke-width: 0.71; fill: #000000;' clip-path='url(#cpODYuNzZ8NTc0LjQ4fDQ0Ny44NXw5Ljk2)' />
<circle cx='165.90' cy='447.85' r='5.69' style='stroke-width: 0.71; fill: #000000;' clip-path='url(#cpODYuNzZ8NTc0LjQ4fDQ0Ny44NXw5Ljk2)' />
<circle cx='236.90' cy='417.90' r='5.69' style='stroke-width: 0.71; fill: #000000;' clip-path='url(#cpODYuNzZ8NTc0LjQ4fDQ0Ny44NXw5Ljk2)' />
<circle cx='346.65' cy='301.21' r='5.69' style='stroke-width: 0.71; fill: #000000;' clip-path='url(#cpODYuNzZ8NTc0LjQ4fDQ0Ny44NXw5Ljk2)' />
<circle cx='433.65' cy='175.73' r='5.69' style='stroke-width: 0.71; fill: #000000;' clip-path='url(#cpODYuNzZ8NTc0LjQ4fDQ0Ny44NXw5Ljk2)' />
<circle cx='524.28' cy='121.93' r='5.69' style='stroke-width: 0.71; fill: #000000;' clip-path='url(#cpODYuNzZ8NTc0LjQ4fDQ0Ny44NXw5Ljk2)' />
<polyline points='124.64,244.19 128.92,358.03 133.20,386.23 137.47,398.80 141.75,400.94 146.03,403.85 150.30,406.34 154.58,419.94 158.86,412.86 163.13,417.12 167.41,418.23 171.69,412.99 175.96,415.19 180.24,403.72 184.52,395.56 188.79,386.04 193.07,370.82 197.35,369.01 201.62,353.47 205.90,354.07 210.18,350.72 214.45,354.26 218.73,350.74 223.01,352.75 227.28,348.02 231.56,349.89 235.84,348.56 240.11,346.52 244.39,343.72 248.67,340.12 252.94,334.79 257.22,332.23 261.50,330.02 265.77,324.99 270.05,321.67 274.33,320.21 278.60,316.52 282.88,312.08 287.16,305.83 291.43,304.66 295.71,299.49 299.99,296.10 304.26,292.74 308.54,288.64 312.82,283.09 317.09,277.84 321.37,273.88 325.65,269.57 329.92,263.79 334.20,259.07 338.48,254.90 342.75,249.44 347.03,244.84 351.31,239.64 355.58,234.16 359.86,229.21 364.13,224.52 368.41,219.92 372.69,215.18 376.96,211.26 381.24,206.67 385.52,202.68 389.79,198.59 394.07,194.66 398.35,190.31 402.62,186.98 406.90,183.33 411.18,179.73 415.45,176.31 419.73,171.96 424.01,168.96 428.28,164.73 432.56,161.71 436.84,157.35 441.11,153.75 445.39,150.27 449.67,145.52 453.94,141.31 458.22,135.78 462.50,130.56 466.77,124.88 471.05,118.42 475.33,112.59 479.60,106.99 483.88,101.19 488.16,94.88 492.43,89.25 496.71,83.64 500.99,78.02 505.26,72.89 509.54,67.92 513.82,63.03 518.09,57.69 522.37,53.58 526.65,49.06 530.92,45.36 535.20,40.26 539.48,38.26 543.75,35.62 548.03,32.60 552.31,29.87 ' style='stroke-width: 2.13; stroke-dasharray: 5.69,5.69; stroke-linecap: butt;' clip-path='url(#cpODYuNzZ8NTc0LjQ4fDQ0Ny44NXw5Ljk2)' />
<polyline points='141.75,401.98 141.75,401.98 ' style='stroke-width: 1.07; stroke-linecap: butt;' clip-path='url(#cpODYuNzZ8NTc0LjQ4fDQ0Ny44NXw5Ljk2)' />
<polyline points='141.75,401.98 124.64,401.98 ' style='stroke-width: 1.07; stroke-linecap: butt;' clip-path='url(#cpODYuNzZ8NTc0LjQ4fDQ0Ny44NXw5Ljk2)' />
<polyline points='124.64,401.98 124.64,401.98 ' style='stroke-width: 1.07; stroke-linecap: butt;' clip-path='url(#cpODYuNzZ8NTc0LjQ4fDQ0Ny44NXw5Ljk2)' />
<polyline points='184.52,447.85 184.52,447.85 ' style='stroke-width: 1.07; stroke-linecap: butt;' clip-path='url(#cpODYuNzZ8NTc0LjQ4fDQ0Ny44NXw5Ljk2)' />
<polyline points='184.52,447.85 146.03,447.85 ' style='stroke-width: 1.07; stroke-linecap: butt;' clip-path='url(#cpODYuNzZ8NTc0LjQ4fDQ0Ny44NXw5Ljk2)' />
<polyline points='146.03,447.85 146.03,447.85 ' style='stroke-width: 1.07; stroke-linecap: butt;' clip-path='url(#cpODYuNzZ8NTc0LjQ4fDQ0Ny44NXw5Ljk2)' />
<polyline points='270.05,417.90 270.05,417.90 ' style='stroke-width: 1.07; stroke-linecap: butt;' clip-path='url(#cpODYuNzZ8NTc0LjQ4fDQ0Ny44NXw5Ljk2)' />
<polyline points='270.05,417.90 188.79,417.90 ' style='stroke-width: 1.07; stroke-linecap: butt;' clip-path='url(#cpODYuNzZ8NTc0LjQ4fDQ0Ny44NXw5Ljk2)' />
<polyline points='188.79,417.90 188.79,417.90 ' style='stroke-width: 1.07; stroke-linecap: butt;' clip-path='url(#cpODYuNzZ8NTc0LjQ4fDQ0Ny44NXw5Ljk2)' />
<polyline points='376.96,301.21 376.96,301.21 ' style='stroke-width: 1.07; stroke-linecap: butt;' clip-path='url(#cpODYuNzZ8NTc0LjQ4fDQ0Ny44NXw5Ljk2)' />
<polyline points='376.96,301.21 274.33,301.21 ' style='stroke-width: 1.07; stroke-linecap: butt;' clip-path='url(#cpODYuNzZ8NTc0LjQ4fDQ0Ny44NXw5Ljk2)' />
<polyline points='274.33,301.21 274.33,301.21 ' style='stroke-width: 1.07; stroke-linecap: butt;' clip-path='url(#cpODYuNzZ8NTc0LjQ4fDQ0Ny44NXw5Ljk2)' />
<polyline points='462.50,175.73 462.50,175.73 ' style='stroke-width: 1.07; stroke-linecap: butt;' clip-path='url(#cpODYuNzZ8NTc0LjQ4fDQ0Ny44NXw5Ljk2)' />
<polyline points='462.50,175.73 381.24,175.73 ' style='stroke-width: 1.07; stroke-linecap: butt;' clip-path='url(#cpODYuNzZ8NTc0LjQ4fDQ0Ny44NXw5Ljk2)' />
<polyline points='381.24,175.73 381.24,175.73 ' style='stroke-width: 1.07; stroke-linecap: butt;' clip-path='url(#cpODYuNzZ8NTc0LjQ4fDQ0Ny44NXw5Ljk2)' />
<polyline points='552.31,121.93 552.31,121.93 ' style='stroke-width: 1.07; stroke-linecap: butt;' clip-path='url(#cpODYuNzZ8NTc0LjQ4fDQ0Ny44NXw5Ljk2)' />
<polyline points='552.31,121.93 466.77,121.93 ' style='stroke-width: 1.07; stroke-linecap: butt;' clip-path='url(#cpODYuNzZ8NTc0LjQ4fDQ0Ny44NXw5Ljk2)' />
<polyline points='466.77,121.93 466.77,121.93 ' style='stroke-width: 1.07; stroke-linecap: butt;' clip-path='url(#cpODYuNzZ8NTc0LjQ4fDQ0Ny44NXw5Ljk2)' />
<polyline points='108.93,393.77 143.14,393.77 ' style='stroke-width: 1.07; stroke-linecap: butt;' clip-path='url(#cpODYuNzZ8NTc0LjQ4fDQ0Ny44NXw5Ljk2)' />
<polyline points='126.03,393.77 126.03,412.03 ' style='stroke-width: 1.07; stroke-linecap: butt;' clip-path='url(#cpODYuNzZ8NTc0LjQ4fDQ0Ny44NXw5Ljk2)' />
<polyline points='108.93,412.03 143.14,412.03 ' style='stroke-width: 1.07; stroke-linecap: butt;' clip-path='url(#cpODYuNzZ8NTc0LjQ4fDQ0Ny44NXw5Ljk2)' />
<polyline points='148.80,447.85 183.01,447.85 ' style='stroke-width: 1.07; stroke-linecap: butt;' clip-path='url(#cpODYuNzZ8NTc0LjQ4fDQ0Ny44NXw5Ljk2)' />
<polyline points='165.90,447.85 165.90,447.85 ' style='stroke-width: 1.07; stroke-linecap: butt;' clip-path='url(#cpODYuNzZ8NTc0LjQ4fDQ0Ny44NXw5Ljk2)' />
<polyline points='148.80,447.85 183.01,447.85 ' style='stroke-width: 1.07; stroke-linecap: butt;' clip-path='url(#cpODYuNzZ8NTc0LjQ4fDQ0Ny44NXw5Ljk2)' />
<polyline points='219.79,409.69 254.00,409.69 ' style='stroke-width: 1.07; stroke-linecap: butt;' clip-path='url(#cpODYuNzZ8NTc0LjQ4fDQ0Ny44NXw5Ljk2)' />
<polyline points='236.90,409.69 236.90,427.95 ' style='stroke-width: 1.07; stroke-linecap: butt;' clip-path='url(#cpODYuNzZ8NTc0LjQ4fDQ0Ny44NXw5Ljk2)' />
<polyline points='219.79,427.95 254.00,427.95 ' style='stroke-width: 1.07; stroke-linecap: butt;' clip-path='url(#cpODYuNzZ8NTc0LjQ4fDQ0Ny44NXw5Ljk2)' />
<polyline points='329.55,293.00 363.76,293.00 ' style='stroke-width: 1.07; stroke-linecap: butt;' clip-path='url(#cpODYuNzZ8NTc0LjQ4fDQ0Ny44NXw5Ljk2)' />
<polyline points='346.65,293.00 346.65,311.26 ' style='stroke-width: 1.07; stroke-linecap: butt;' clip-path='url(#cpODYuNzZ8NTc0LjQ4fDQ0Ny44NXw5Ljk2)' />
<polyline points='329.55,311.26 363.76,311.26 ' style='stroke-width: 1.07; stroke-linecap: butt;' clip-path='url(#cpODYuNzZ8NTc0LjQ4fDQ0Ny44NXw5Ljk2)' />
<polyline points='416.55,167.52 450.76,167.52 ' style='stroke-width: 1.07; stroke-linecap: butt;' clip-path='url(#cpODYuNzZ8NTc0LjQ4fDQ0Ny44NXw5Ljk2)' />
<polyline points='433.65,167.52 433.65,185.78 ' style='stroke-width: 1.07; stroke-linecap: butt;' clip-path='url(#cpODYuNzZ8NTc0LjQ4fDQ0Ny44NXw5Ljk2)' />
<polyline points='416.55,185.78 450.76,185.78 ' style='stroke-width: 1.07; stroke-linecap: butt;' clip-path='url(#cpODYuNzZ8NTc0LjQ4fDQ0Ny44NXw5Ljk2)' />
<polyline points='507.17,113.71 541.38,113.71 ' style='stroke-width: 1.07; stroke-linecap: butt;' clip-path='url(#cpODYuNzZ8NTc0LjQ4fDQ0Ny44NXw5Ljk2)' />
<polyline points='524.28,113.71 524.28,131.98 ' style='stroke-width: 1.07; stroke-linecap: butt;' clip-path='url(#cpODYuNzZ8NTc0LjQ4fDQ0Ny44NXw5Ljk2)' />
<polyline points='507.17,131.98 541.38,131.98 ' style='stroke-width: 1.07; stroke-linecap: butt;' clip-path='url(#cpODYuNzZ8NTc0LjQ4fDQ0Ny44NXw5Ljk2)' />
<rect x='86.76' y='9.96' width='487.72' height='437.89' style='stroke-width: 1.94; stroke: #333333;' clip-path='url(#cpODYuNzZ8NTc0LjQ4fDQ0Ny44NXw5Ljk2)' />
<defs>
  <clipPath id='cpMC4wMHw3MjAuMDB8NTA0LjAwfDAuMDA='>
    <rect x='0.00' y='0.00' width='720.00' height='504.00' />
  </clipPath>
</defs>
<g clip-path='url(#cpMC4wMHw3MjAuMDB8NTA0LjAwfDAuMDA=)'><text x='36.87' y='438.16' style='font-size: 16.00px; fill: #4D4D4D; font-family: Liberation Sans;' textLength='40.92px' lengthAdjust='spacingAndGlyphs'>1e-02</text></g>
<g clip-path='url(#cpMC4wMHw3MjAuMDB8NTA0LjAwfDAuMDA=)'><text x='36.87' y='334.46' style='font-size: 16.00px; fill: #4D4D4D; font-family: Liberation Sans;' textLength='40.92px' lengthAdjust='spacingAndGlyphs'>1e-01</text></g>
<g clip-path='url(#cpMC4wMHw3MjAuMDB8NTA0LjAwfDAuMDA=)'><text x='32.85' y='230.76' style='font-size: 16.00px; fill: #4D4D4D; font-family: Liberation Sans;' textLength='44.94px' lengthAdjust='spacingAndGlyphs'>1e+00</text></g>
<g clip-path='url(#cpMC4wMHw3MjAuMDB8NTA0LjAwfDAuMDA=)'><text x='32.85' y='127.06' style='font-size: 16.00px; fill: #4D4D4D; font-family: Liberation Sans;' textLength='44.94px' lengthAdjust='spacingAndGlyphs'>1e+01</text></g>
<g clip-path='url(#cpMC4wMHw3MjAuMDB8NTA0LjAwfDAuMDA=)'><text x='32.85' y='23.36' style='font-size: 16.00px; fill: #4D4D4D; font-family: Liberation Sans;' textLength='44.94px' lengthAdjust='spacingAndGlyphs'>1e+02</text></g>
<polyline points='81.78,432.65 86.76,432.65 ' style='stroke-width: 1.94; stroke: #333333; stroke-linecap: butt;' clip-path='url(#cpMC4wMHw3MjAuMDB8NTA0LjAwfDAuMDA=)' />
<polyline points='81.78,328.95 86.76,328.95 ' style='stroke-width: 1.94; stroke: #333333; stroke-linecap: butt;' clip-path='url(#cpMC4wMHw3MjAuMDB8NTA0LjAwfDAuMDA=)' />
<polyline points='81.78,225.25 86.76,225.25 ' style='stroke-width: 1.94; stroke: #333333; stroke-linecap: butt;' clip-path='url(#cpMC4wMHw3MjAuMDB8NTA0LjAwfDAuMDA=)' />
<polyline points='81.78,121.55 86.76,121.55 ' style='stroke-width: 1.94; stroke: #333333; stroke-linecap: butt;' clip-path='url(#cpMC4wMHw3MjAuMDB8NTA0LjAwfDAuMDA=)' />
<polyline points='81.78,17.86 86.76,17.86 ' style='stroke-width: 1.94; stroke: #333333; stroke-linecap: butt;' clip-path='url(#cpMC4wMHw3MjAuMDB8NTA0LjAwfDAuMDA=)' />
<polyline points='124.64,452.83 124.64,447.85 ' style='stroke-width: 1.94; stroke: #333333; stroke-linecap: butt;' clip-path='url(#cpMC4wMHw3MjAuMDB8NTA0LjAwfDAuMDA=)' />
<polyline points='231.56,452.83 231.56,447.85 ' style='stroke-width: 1.94; stroke: #333333; stroke-linecap: butt;' clip-path='url(#cpMC4wMHw3MjAuMDB8NTA0LjAwfDAuMDA=)' />
<polyline points='338.48,452.83 338.48,447.85 ' style='stroke-width: 1.94; stroke: #333333; stroke-linecap: butt;' clip-path='url(#cpMC4wMHw3MjAuMDB8NTA0LjAwfDAuMDA=)' />
<polyline points='445.39,452.83 445.39,447.85 ' style='stroke-width: 1.94; stroke: #333333; stroke-linecap: butt;' clip-path='url(#cpMC4wMHw3MjAuMDB8NTA0LjAwfDAuMDA=)' />
<polyline points='552.31,452.83 552.31,447.85 ' style='stroke-width: 1.94; stroke: #333333; stroke-linecap: butt;' clip-path='url(#cpMC4wMHw3MjAuMDB8NTA0LjAwfDAuMDA=)' />
<g clip-path='url(#cpMC4wMHw3MjAuMDB8NTA0LjAwfDAuMDA=)'><text x='120.19' y='467.83' style='font-size: 16.00px; fill: #4D4D4D; font-family: Liberation Sans;' textLength='8.90px' lengthAdjust='spacingAndGlyphs'>0</text></g>
<g clip-path='url(#cpMC4wMHw3MjAuMDB8NTA0LjAwfDAuMDA=)'><text x='222.66' y='467.83' style='font-size: 16.00px; fill: #4D4D4D; font-family: Liberation Sans;' textLength='17.80px' lengthAdjust='spacingAndGlyphs'>25</text></g>
<g clip-path='url(#cpMC4wMHw3MjAuMDB8NTA0LjAwfDAuMDA=)'><text x='329.58' y='467.83' style='font-size: 16.00px; fill: #4D4D4D; font-family: Liberation Sans;' textLength='17.80px' lengthAdjust='spacingAndGlyphs'>50</text></g>
<g clip-path='url(#cpMC4wMHw3MjAuMDB8NTA0LjAwfDAuMDA=)'><text x='436.49' y='467.83' style='font-size: 16.00px; fill: #4D4D4D; font-family: Liberation Sans;' textLength='17.80px' lengthAdjust='spacingAndGlyphs'>75</text></g>
<g clip-path='url(#cpMC4wMHw3MjAuMDB8NTA0LjAwfDAuMDA=)'><text x='538.96' y='467.83' style='font-size: 16.00px; fill: #4D4D4D; font-family: Liberation Sans;' textLength='26.70px' lengthAdjust='spacingAndGlyphs'>100</text></g>
<g clip-path='url(#cpMC4wMHw3MjAuMDB8NTA0LjAwfDAuMDA=)'><text x='271.14' y='489.89' style='font-size: 20.00px; font-family: Liberation Sans;' textLength='118.95px' lengthAdjust='spacingAndGlyphs'>Alter / Jahren</text></g>
<g clip-path='url(#cpMC4wMHw3MjAuMDB8NTA0LjAwfDAuMDA=)'><text transform='translate(23.72,356.74) rotate(-90)' style='font-size: 20.00px; font-family: Liberation Sans;' textLength='255.67px' lengthAdjust='spacingAndGlyphs'>Sterbewahrscheinlichkeit / %</text></g>
<rect x='594.40' y='187.73' width='115.64' height='82.36' style='stroke-width: 1.94; stroke: none; fill: #FFFFFF;' clip-path='url(#cpMC4wMHw3MjAuMDB8NTA0LjAwfDAuMDA=)' />
<rect x='604.36' y='225.56' width='17.28' height='17.28' style='stroke-width: 1.94; stroke: none; fill: #FFFFFF;' clip-path='url(#cpMC4wMHw3MjAuMDB8NTA0LjAwfDAuMDA=)' />
<line x1='606.09' y1='234.20' x2='619.92' y2='234.20' style='stroke-width: 2.13; stroke-linecap: butt;' clip-path='url(#cpMC4wMHw3MjAuMDB8NTA0LjAwfDAuMDA=)' />
<line x1='606.09' y1='234.20' x2='619.92' y2='234.20' style='stroke-width: 1.07; stroke-linecap: butt;' clip-path='url(#cpMC4wMHw3MjAuMDB8NTA0LjAwfDAuMDA=)' />
<line x1='606.09' y1='234.20' x2='619.92' y2='234.20' style='stroke-width: 1.07; stroke-linecap: butt;' clip-path='url(#cpMC4wMHw3MjAuMDB8NTA0LjAwfDAuMDA=)' />
<rect x='604.36' y='242.84' width='17.28' height='17.28' style='stroke-width: 1.94; stroke: none; fill: #FFFFFF;' clip-path='url(#cpMC4wMHw3MjAuMDB8NTA0LjAwfDAuMDA=)' />
<line x1='606.09' y1='251.48' x2='619.92' y2='251.48' style='stroke-width: 2.13; stroke-dasharray: 5.69,5.69; stroke-linecap: butt;' clip-path='url(#cpMC4wMHw3MjAuMDB8NTA0LjAwfDAuMDA=)' />
<line x1='606.09' y1='251.48' x2='619.92' y2='251.48' style='stroke-width: 1.07; stroke-dasharray: 2.85,2.85; stroke-linecap: butt;' clip-path='url(#cpMC4wMHw3MjAuMDB8NTA0LjAwfDAuMDA=)' />
<line x1='606.09' y1='251.48' x2='619.92' y2='251.48' style='stroke-width: 1.07; stroke-dasharray: 2.85,2.85; stroke-linecap: butt;' clip-path='url(#cpMC4wMHw3MjAuMDB8NTA0LjAwfDAuMDA=)' />
<g clip-path='url(#cpMC4wMHw3MjAuMDB8NTA0LjAwfDAuMDA=)'><text x='631.61' y='239.71' style='font-size: 16.00px; font-family: Liberation Sans;' textLength='68.47px' lengthAdjust='spacingAndGlyphs'>COVID19</text></g>
<g clip-path='url(#cpMC4wMHw3MjAuMDB8NTA0LjAwfDAuMDA=)'><text x='631.61' y='256.99' style='font-size: 16.00px; font-family: Liberation Sans;' textLength='51.56px' lengthAdjust='spacingAndGlyphs'>Normal</text></g>
</svg>
