,Version,Date,StartOfDiseaseDate,IdBundesland,Bundesland,IdLandkreis,Landkreis,Age,Gender,NumberNewTestedIll,NumberNewDead,NumberNewRecovered
808,2020-06-02,2020-03-07,2020-03-05,14,Sachsen,14612,SK Dresden,A60-A79,M,1,0,1
822,2020-06-02,2020-03-07,2020-03-07,14,Sachsen,14612,SK Dresden,A60-A79,W,1,0,1
1086,2020-06-02,2020-03-09,2020-03-05,14,Sachsen,14612,SK Dresden,A15-A34,M,1,0,1
1385,2020-06-02,2020-03-10,2020-03-04,14,Sachsen,14612,SK Dresden,A15-A34,M,1,0,1
1668,2020-06-02,2020-03-10,2020-03-11,14,Sachsen,14612,SK Dresden,A15-A34,M,1,0,1
2145,2020-06-02,2020-03-11,2020-03-08,14,Sachsen,14612,SK Dresden,A35-A59,M,1,0,1
2275,2020-06-02,2020-03-11,2020-03-10,14,Sachsen,14612,SK Dresden,A15-A34,W,1,0,1
2299,2020-06-02,2020-03-11,2020-03-11,14,Sachsen,14612,SK Dresden,A15-A34,W,1,0,1
2440,2020-06-02,2020-03-11,NA,14,Sachsen,14612,SK Dresden,A60-A79,M,1,0,1
2570,2020-06-02,2020-03-12,2020-03-05,14,Sachsen,14612,SK Dresden,A15-A34,M,1,0,1
2776,2020-06-02,2020-03-12,2020-03-08,14,Sachsen,14612,SK Dresden,A15-A34,W,1,0,1
2777,2020-06-02,2020-03-12,2020-03-08,14,Sachsen,14612,SK Dresden,A35-A59,M,1,0,1
2882,2020-06-02,2020-03-12,2020-03-09,14,Sachsen,14612,SK Dresden,A35-A59,M,1,0,1
2883,2020-06-02,2020-03-12,2020-03-09,14,Sachsen,14612,SK Dresden,A35-A59,W,1,0,1
2997,2020-06-02,2020-03-12,2020-03-10,14,Sachsen,14612,SK Dresden,A35-A59,M,1,0,1
3093,2020-06-02,2020-03-12,2020-03-12,14,Sachsen,14612,SK Dresden,A35-A59,M,1,0,1
3282,2020-06-02,2020-03-13,2020-02-25,14,Sachsen,14612,SK Dresden,A35-A59,M,1,0,1
3744,2020-06-02,2020-03-13,2020-03-09,14,Sachsen,14612,SK Dresden,A00-A04,M,1,0,1
3745,2020-06-02,2020-03-13,2020-03-09,14,Sachsen,14612,SK Dresden,A35-A59,M,1,0,1
4065,2020-06-02,2020-03-13,2020-03-11,14,Sachsen,14612,SK Dresden,A15-A34,W,1,0,1
4066,2020-06-02,2020-03-13,2020-03-11,14,Sachsen,14612,SK Dresden,A35-A59,M,1,0,1
4067,2020-06-02,2020-03-13,2020-03-11,14,Sachsen,14612,SK Dresden,A35-A59,W,1,0,1
4183,2020-06-02,2020-03-13,2020-03-13,14,Sachsen,14612,SK Dresden,A60-A79,M,1,0,1
4738,2020-06-02,2020-03-14,2020-03-09,14,Sachsen,14612,SK Dresden,A35-A59,M,1,0,1
4856,2020-06-02,2020-03-14,2020-03-10,14,Sachsen,14612,SK Dresden,A15-A34,M,2,0,2
4974,2020-06-02,2020-03-14,2020-03-11,14,Sachsen,14612,SK Dresden,A35-A59,W,1,0,1
5101,2020-06-02,2020-03-14,2020-03-12,14,Sachsen,14612,SK Dresden,A35-A59,W,2,0,2
5171,2020-06-02,2020-03-14,2020-03-13,14,Sachsen,14612,SK Dresden,A15-A34,M,1,0,1
5172,2020-06-02,2020-03-14,2020-03-13,14,Sachsen,14612,SK Dresden,A35-A59,M,1,0,1
5173,2020-06-02,2020-03-14,2020-03-13,14,Sachsen,14612,SK Dresden,A35-A59,W,2,0,2
5212,2020-06-02,2020-03-14,2020-03-15,14,Sachsen,14612,SK Dresden,A15-A34,M,1,0,1
5867,2020-06-02,2020-03-15,2020-03-12,14,Sachsen,14612,SK Dresden,A60-A79,W,1,0,1
5948,2020-06-02,2020-03-15,2020-03-13,14,Sachsen,14612,SK Dresden,A15-A34,M,1,0,1
5949,2020-06-02,2020-03-15,2020-03-13,14,Sachsen,14612,SK Dresden,A35-A59,W,1,0,1
5988,2020-06-02,2020-03-15,2020-03-15,14,Sachsen,14612,SK Dresden,A15-A34,M,1,0,1
6803,2020-06-02,2020-03-16,2020-03-11,14,Sachsen,14612,SK Dresden,A15-A34,M,1,0,1
6990,2020-06-02,2020-03-16,2020-03-12,14,Sachsen,14612,SK Dresden,A15-A34,M,1,0,1
7157,2020-06-02,2020-03-16,2020-03-13,14,Sachsen,14612,SK Dresden,A35-A59,W,1,0,1
7280,2020-06-02,2020-03-16,2020-03-14,14,Sachsen,14612,SK Dresden,A15-A34,M,1,0,1
7281,2020-06-02,2020-03-16,2020-03-14,14,Sachsen,14612,SK Dresden,A15-A34,W,1,0,1
7949,2020-06-02,2020-03-17,2020-03-08,14,Sachsen,14612,SK Dresden,A35-A59,M,2,0,2
8668,2020-06-02,2020-03-17,2020-03-12,14,Sachsen,14612,SK Dresden,A15-A34,W,1,0,1
8669,2020-06-02,2020-03-17,2020-03-12,14,Sachsen,14612,SK Dresden,A35-A59,W,2,0,2
8917,2020-06-02,2020-03-17,2020-03-13,14,Sachsen,14612,SK Dresden,A15-A34,M,1,0,1
8918,2020-06-02,2020-03-17,2020-03-13,14,Sachsen,14612,SK Dresden,A35-A59,M,1,0,1
9151,2020-06-02,2020-03-17,2020-03-14,14,Sachsen,14612,SK Dresden,A15-A34,M,1,0,1
9152,2020-06-02,2020-03-17,2020-03-14,14,Sachsen,14612,SK Dresden,A15-A34,W,1,0,1
9153,2020-06-02,2020-03-17,2020-03-14,14,Sachsen,14612,SK Dresden,A35-A59,W,1,0,1
9329,2020-06-02,2020-03-17,2020-03-15,14,Sachsen,14612,SK Dresden,A05-A14,M,1,0,1
9440,2020-06-02,2020-03-17,2020-03-16,14,Sachsen,14612,SK Dresden,A15-A34,W,1,0,1
9493,2020-06-02,2020-03-17,2020-03-17,14,Sachsen,14612,SK Dresden,A15-A34,M,2,0,2
9509,2020-06-02,2020-03-17,2020-03-18,14,Sachsen,14612,SK Dresden,A15-A34,M,1,0,1
9939,2020-06-02,2020-03-17,NA,14,Sachsen,14612,SK Dresden,A35-A59,M,1,0,1
9940,2020-06-02,2020-03-17,NA,14,Sachsen,14612,SK Dresden,A80+,M,1,0,1
10243,2020-06-02,2020-03-18,2020-03-09,14,Sachsen,14612,SK Dresden,A60-A79,M,1,0,1
10390,2020-06-02,2020-03-18,2020-03-10,14,Sachsen,14612,SK Dresden,A35-A59,W,1,0,1
10596,2020-06-02,2020-03-18,2020-03-11,14,Sachsen,14612,SK Dresden,A35-A59,M,2,0,2
10841,2020-06-02,2020-03-18,2020-03-12,14,Sachsen,14612,SK Dresden,A35-A59,W,1,0,1
11143,2020-06-02,2020-03-18,2020-03-13,14,Sachsen,14612,SK Dresden,A15-A34,M,2,0,2
11447,2020-06-02,2020-03-18,2020-03-14,14,Sachsen,14612,SK Dresden,A15-A34,M,2,0,2
11448,2020-06-02,2020-03-18,2020-03-14,14,Sachsen,14612,SK Dresden,A35-A59,M,1,0,1
11723,2020-06-02,2020-03-18,2020-03-15,14,Sachsen,14612,SK Dresden,A15-A34,W,1,0,1
11958,2020-06-02,2020-03-18,2020-03-16,14,Sachsen,14612,SK Dresden,A15-A34,M,1,0,1
11959,2020-06-02,2020-03-18,2020-03-16,14,Sachsen,14612,SK Dresden,A60-A79,M,1,0,1
12630,2020-06-02,2020-03-18,NA,14,Sachsen,14612,SK Dresden,A15-A34,M,2,0,2
12631,2020-06-02,2020-03-18,NA,14,Sachsen,14612,SK Dresden,A35-A59,M,1,0,1
12941,2020-06-02,2020-03-19,2020-03-09,14,Sachsen,14612,SK Dresden,A15-A34,M,1,0,1
13070,2020-06-02,2020-03-19,2020-03-10,14,Sachsen,14612,SK Dresden,A35-A59,W,1,0,1
13461,2020-06-02,2020-03-19,2020-03-12,14,Sachsen,14612,SK Dresden,A15-A34,W,1,0,1
13772,2020-06-02,2020-03-19,2020-03-13,14,Sachsen,14612,SK Dresden,A00-A04,M,1,0,1
13773,2020-06-02,2020-03-19,2020-03-13,14,Sachsen,14612,SK Dresden,A35-A59,W,1,0,1
14085,2020-06-02,2020-03-19,2020-03-14,14,Sachsen,14612,SK Dresden,A15-A34,W,3,0,3
14086,2020-06-02,2020-03-19,2020-03-14,14,Sachsen,14612,SK Dresden,A35-A59,M,1,0,1
14087,2020-06-02,2020-03-19,2020-03-14,14,Sachsen,14612,SK Dresden,A35-A59,W,1,0,1
14408,2020-06-02,2020-03-19,2020-03-15,14,Sachsen,14612,SK Dresden,A00-A04,M,1,0,1
14409,2020-06-02,2020-03-19,2020-03-15,14,Sachsen,14612,SK Dresden,A15-A34,W,2,0,2
14410,2020-06-02,2020-03-19,2020-03-15,14,Sachsen,14612,SK Dresden,A35-A59,M,3,0,3
14411,2020-06-02,2020-03-19,2020-03-15,14,Sachsen,14612,SK Dresden,A35-A59,W,1,0,1
14742,2020-06-02,2020-03-19,2020-03-16,14,Sachsen,14612,SK Dresden,A15-A34,M,1,0,1
14743,2020-06-02,2020-03-19,2020-03-16,14,Sachsen,14612,SK Dresden,A35-A59,M,2,0,2
14973,2020-06-02,2020-03-19,2020-03-17,14,Sachsen,14612,SK Dresden,A15-A34,M,1,0,1
14974,2020-06-02,2020-03-19,2020-03-17,14,Sachsen,14612,SK Dresden,A15-A34,W,1,0,1
15089,2020-06-02,2020-03-19,2020-03-18,14,Sachsen,14612,SK Dresden,A35-A59,M,4,0,4
15687,2020-06-02,2020-03-19,NA,14,Sachsen,14612,SK Dresden,A35-A59,M,1,0,1
15688,2020-06-02,2020-03-19,NA,14,Sachsen,14612,SK Dresden,A80+,W,1,1,0
16164,2020-06-02,2020-03-20,2020-03-11,14,Sachsen,14612,SK Dresden,A15-A34,M,1,0,1
16348,2020-06-02,2020-03-20,2020-03-12,14,Sachsen,14612,SK Dresden,A35-A59,M,1,0,1
16577,2020-06-02,2020-03-20,2020-03-13,14,Sachsen,14612,SK Dresden,A60-A79,M,1,0,1
16837,2020-06-02,2020-03-20,2020-03-14,14,Sachsen,14612,SK Dresden,A15-A34,W,1,0,1
16838,2020-06-02,2020-03-20,2020-03-14,14,Sachsen,14612,SK Dresden,A35-A59,M,1,0,1
16839,2020-06-02,2020-03-20,2020-03-14,14,Sachsen,14612,SK Dresden,A35-A59,W,1,0,1
17145,2020-06-02,2020-03-20,2020-03-15,14,Sachsen,14612,SK Dresden,A15-A34,M,1,0,1
17146,2020-06-02,2020-03-20,2020-03-15,14,Sachsen,14612,SK Dresden,A15-A34,W,1,0,1
17147,2020-06-02,2020-03-20,2020-03-15,14,Sachsen,14612,SK Dresden,A35-A59,M,1,0,1
17148,2020-06-02,2020-03-20,2020-03-15,14,Sachsen,14612,SK Dresden,A35-A59,W,1,0,1
17487,2020-06-02,2020-03-20,2020-03-16,14,Sachsen,14612,SK Dresden,A05-A14,M,1,0,1
17488,2020-06-02,2020-03-20,2020-03-16,14,Sachsen,14612,SK Dresden,A80+,W,1,0,1
17791,2020-06-02,2020-03-20,2020-03-17,14,Sachsen,14612,SK Dresden,A35-A59,M,1,0,1
18011,2020-06-02,2020-03-20,2020-03-18,14,Sachsen,14612,SK Dresden,A35-A59,M,1,0,1
18131,2020-06-02,2020-03-20,2020-03-19,14,Sachsen,14612,SK Dresden,A15-A34,W,1,0,1
18132,2020-06-02,2020-03-20,2020-03-19,14,Sachsen,14612,SK Dresden,A35-A59,M,2,0,2
18714,2020-06-02,2020-03-20,NA,14,Sachsen,14612,SK Dresden,A15-A34,M,1,0,1
18715,2020-06-02,2020-03-20,NA,14,Sachsen,14612,SK Dresden,A35-A59,M,1,0,1
18716,2020-06-02,2020-03-20,NA,14,Sachsen,14612,SK Dresden,A60-A79,M,2,2,0
18798,2020-06-02,2020-03-21,2020-03-07,14,Sachsen,14612,SK Dresden,A35-A59,W,1,0,1
18960,2020-06-02,2020-03-21,2020-03-10,14,Sachsen,14612,SK Dresden,A15-A34,W,1,0,1
19354,2020-06-02,2020-03-21,2020-03-13,14,Sachsen,14612,SK Dresden,A15-A34,W,2,0,2
19559,2020-06-02,2020-03-21,2020-03-14,14,Sachsen,14612,SK Dresden,A15-A34,M,1,0,1
19560,2020-06-02,2020-03-21,2020-03-14,14,Sachsen,14612,SK Dresden,A15-A34,W,1,0,1
19561,2020-06-02,2020-03-21,2020-03-14,14,Sachsen,14612,SK Dresden,A35-A59,M,1,0,1
19562,2020-06-02,2020-03-21,2020-03-14,14,Sachsen,14612,SK Dresden,A35-A59,W,1,0,1
19792,2020-06-02,2020-03-21,2020-03-15,14,Sachsen,14612,SK Dresden,A05-A14,M,1,0,1
19793,2020-06-02,2020-03-21,2020-03-15,14,Sachsen,14612,SK Dresden,A35-A59,M,1,0,1
20033,2020-06-02,2020-03-21,2020-03-16,14,Sachsen,14612,SK Dresden,A15-A34,M,1,0,1
20034,2020-06-02,2020-03-21,2020-03-16,14,Sachsen,14612,SK Dresden,A35-A59,M,1,0,1
20035,2020-06-02,2020-03-21,2020-03-16,14,Sachsen,14612,SK Dresden,A35-A59,W,2,0,2
20304,2020-06-02,2020-03-21,2020-03-17,14,Sachsen,14612,SK Dresden,A15-A34,M,1,0,1
20305,2020-06-02,2020-03-21,2020-03-17,14,Sachsen,14612,SK Dresden,A35-A59,M,1,0,1
20306,2020-06-02,2020-03-21,2020-03-17,14,Sachsen,14612,SK Dresden,A35-A59,W,5,0,5
20551,2020-06-02,2020-03-21,2020-03-18,14,Sachsen,14612,SK Dresden,A15-A34,W,1,0,1
20552,2020-06-02,2020-03-21,2020-03-18,14,Sachsen,14612,SK Dresden,A35-A59,M,3,0,3
20553,2020-06-02,2020-03-21,2020-03-18,14,Sachsen,14612,SK Dresden,A35-A59,W,2,0,2
20734,2020-06-02,2020-03-21,2020-03-19,14,Sachsen,14612,SK Dresden,A15-A34,W,1,0,1
20735,2020-06-02,2020-03-21,2020-03-19,14,Sachsen,14612,SK Dresden,A35-A59,M,1,0,1
20826,2020-06-02,2020-03-21,2020-03-20,14,Sachsen,14612,SK Dresden,A35-A59,W,1,0,1
20827,2020-06-02,2020-03-21,2020-03-20,14,Sachsen,14612,SK Dresden,A60-A79,M,1,0,1
20828,2020-06-02,2020-03-21,2020-03-20,14,Sachsen,14612,SK Dresden,A60-A79,W,1,0,1
20829,2020-06-02,2020-03-21,2020-03-20,14,Sachsen,14612,SK Dresden,A80+,W,1,0,1
21315,2020-06-02,2020-03-21,NA,14,Sachsen,14612,SK Dresden,A15-A34,W,1,0,1
21316,2020-06-02,2020-03-21,NA,14,Sachsen,14612,SK Dresden,A35-A59,M,1,0,1
23878,2020-06-02,2020-03-23,2020-03-14,14,Sachsen,14612,SK Dresden,A35-A59,W,1,0,1
23879,2020-06-02,2020-03-23,2020-03-14,14,Sachsen,14612,SK Dresden,A60-A79,M,1,0,1
24311,2020-06-02,2020-03-23,2020-03-16,14,Sachsen,14612,SK Dresden,A35-A59,M,1,0,1
24312,2020-06-02,2020-03-23,2020-03-16,14,Sachsen,14612,SK Dresden,A60-A79,M,2,0,2
24609,2020-06-02,2020-03-23,2020-03-17,14,Sachsen,14612,SK Dresden,A35-A59,M,1,0,1
24610,2020-06-02,2020-03-23,2020-03-17,14,Sachsen,14612,SK Dresden,A60-A79,M,1,0,1
25081,2020-06-02,2020-03-23,2020-03-19,14,Sachsen,14612,SK Dresden,A35-A59,W,1,0,1
25262,2020-06-02,2020-03-23,2020-03-20,14,Sachsen,14612,SK Dresden,A60-A79,M,1,0,1
25385,2020-06-02,2020-03-23,2020-03-21,14,Sachsen,14612,SK Dresden,A15-A34,M,2,0,2
25386,2020-06-02,2020-03-23,2020-03-21,14,Sachsen,14612,SK Dresden,A35-A59,W,1,0,1
25445,2020-06-02,2020-03-23,2020-03-22,14,Sachsen,14612,SK Dresden,A15-A34,W,1,0,1
25473,2020-06-02,2020-03-23,2020-03-23,14,Sachsen,14612,SK Dresden,A15-A34,W,1,0,1
25474,2020-06-02,2020-03-23,2020-03-23,14,Sachsen,14612,SK Dresden,A35-A59,W,2,0,2
26019,2020-06-02,2020-03-23,NA,14,Sachsen,14612,SK Dresden,A15-A34,W,1,0,1
26174,2020-06-02,2020-03-24,2020-03-09,14,Sachsen,14612,SK Dresden,A15-A34,W,1,0,1
26327,2020-06-02,2020-03-24,2020-03-11,14,Sachsen,14612,SK Dresden,A15-A34,W,1,0,1
26451,2020-06-02,2020-03-24,2020-03-12,14,Sachsen,14612,SK Dresden,A35-A59,M,1,0,1
26618,2020-06-02,2020-03-24,2020-03-13,14,Sachsen,14612,SK Dresden,A15-A34,W,1,0,1
26619,2020-06-02,2020-03-24,2020-03-13,14,Sachsen,14612,SK Dresden,A60-A79,W,1,0,1
26841,2020-06-02,2020-03-24,2020-03-14,14,Sachsen,14612,SK Dresden,A15-A34,W,1,0,1
27346,2020-06-02,2020-03-24,2020-03-16,14,Sachsen,14612,SK Dresden,A35-A59,M,1,0,1
27671,2020-06-02,2020-03-24,2020-03-17,14,Sachsen,14612,SK Dresden,A15-A34,M,1,0,1
27672,2020-06-02,2020-03-24,2020-03-17,14,Sachsen,14612,SK Dresden,A15-A34,W,1,0,1
27956,2020-06-02,2020-03-24,2020-03-18,14,Sachsen,14612,SK Dresden,A15-A34,M,1,0,1
27957,2020-06-02,2020-03-24,2020-03-18,14,Sachsen,14612,SK Dresden,A35-A59,W,1,0,1
28230,2020-06-02,2020-03-24,2020-03-19,14,Sachsen,14612,SK Dresden,A35-A59,M,1,0,1
28231,2020-06-02,2020-03-24,2020-03-19,14,Sachsen,14612,SK Dresden,A35-A59,W,1,0,1
28507,2020-06-02,2020-03-24,2020-03-20,14,Sachsen,14612,SK Dresden,A05-A14,W,1,0,1
28508,2020-06-02,2020-03-24,2020-03-20,14,Sachsen,14612,SK Dresden,A35-A59,M,4,0,4
28509,2020-06-02,2020-03-24,2020-03-20,14,Sachsen,14612,SK Dresden,A35-A59,W,2,0,2
28510,2020-06-02,2020-03-24,2020-03-20,14,Sachsen,14612,SK Dresden,A60-A79,M,1,0,1
28511,2020-06-02,2020-03-24,2020-03-20,14,Sachsen,14612,SK Dresden,A60-A79,W,2,0,2
28512,2020-06-02,2020-03-24,2020-03-20,14,Sachsen,14612,SK Dresden,A80+,M,1,0,1
28765,2020-06-02,2020-03-24,2020-03-21,14,Sachsen,14612,SK Dresden,A15-A34,M,2,0,2
28766,2020-06-02,2020-03-24,2020-03-21,14,Sachsen,14612,SK Dresden,A15-A34,W,2,0,2
28767,2020-06-02,2020-03-24,2020-03-21,14,Sachsen,14612,SK Dresden,A60-A79,W,1,0,1
28930,2020-06-02,2020-03-24,2020-03-22,14,Sachsen,14612,SK Dresden,A15-A34,W,1,0,1
28931,2020-06-02,2020-03-24,2020-03-22,14,Sachsen,14612,SK Dresden,A35-A59,M,2,0,2
28932,2020-06-02,2020-03-24,2020-03-22,14,Sachsen,14612,SK Dresden,A35-A59,W,1,0,1
28933,2020-06-02,2020-03-24,2020-03-22,14,Sachsen,14612,SK Dresden,A60-A79,M,1,0,1
29042,2020-06-02,2020-03-24,2020-03-23,14,Sachsen,14612,SK Dresden,A15-A34,W,1,0,1
29043,2020-06-02,2020-03-24,2020-03-23,14,Sachsen,14612,SK Dresden,A60-A79,W,1,0,1
29714,2020-06-02,2020-03-24,NA,14,Sachsen,14612,SK Dresden,A15-A34,M,1,0,1
29715,2020-06-02,2020-03-24,NA,14,Sachsen,14612,SK Dresden,A15-A34,W,1,0,1
29716,2020-06-02,2020-03-24,NA,14,Sachsen,14612,SK Dresden,A35-A59,M,1,0,1
29717,2020-06-02,2020-03-24,NA,14,Sachsen,14612,SK Dresden,A60-A79,M,1,1,0
29718,2020-06-02,2020-03-24,NA,14,Sachsen,14612,SK Dresden,A80+,W,1,0,1
30137,2020-06-02,2020-03-25,2020-03-12,14,Sachsen,14612,SK Dresden,A35-A59,M,1,0,1
30462,2020-06-02,2020-03-25,2020-03-14,14,Sachsen,14612,SK Dresden,A35-A59,W,1,0,1
30688,2020-06-02,2020-03-25,2020-03-15,14,Sachsen,14612,SK Dresden,A35-A59,M,1,0,1
31013,2020-06-02,2020-03-25,2020-03-16,14,Sachsen,14612,SK Dresden,A35-A59,M,1,0,1
31680,2020-06-02,2020-03-25,2020-03-18,14,Sachsen,14612,SK Dresden,A35-A59,M,1,0,1
32012,2020-06-02,2020-03-25,2020-03-19,14,Sachsen,14612,SK Dresden,A15-A34,W,1,0,1
32013,2020-06-02,2020-03-25,2020-03-19,14,Sachsen,14612,SK Dresden,A35-A59,M,1,0,1
32351,2020-06-02,2020-03-25,2020-03-20,14,Sachsen,14612,SK Dresden,A35-A59,W,2,0,2
32685,2020-06-02,2020-03-25,2020-03-21,14,Sachsen,14612,SK Dresden,A35-A59,W,2,0,2
32930,2020-06-02,2020-03-25,2020-03-22,14,Sachsen,14612,SK Dresden,A35-A59,M,1,0,1
33356,2020-06-02,2020-03-25,2020-03-25,14,Sachsen,14612,SK Dresden,A60-A79,M,1,0,1
34181,2020-06-02,2020-03-26,2020-03-09,14,Sachsen,14612,SK Dresden,A35-A59,M,1,0,1
34670,2020-06-02,2020-03-26,2020-03-14,14,Sachsen,14612,SK Dresden,A35-A59,M,1,0,1
34837,2020-06-02,2020-03-26,2020-03-15,14,Sachsen,14612,SK Dresden,A35-A59,W,1,0,1
35135,2020-06-02,2020-03-26,2020-03-16,14,Sachsen,14612,SK Dresden,A15-A34,W,1,0,1
35136,2020-06-02,2020-03-26,2020-03-16,14,Sachsen,14612,SK Dresden,A35-A59,M,1,0,1
35405,2020-06-02,2020-03-26,2020-03-17,14,Sachsen,14612,SK Dresden,A60-A79,M,1,0,1
35406,2020-06-02,2020-03-26,2020-03-17,14,Sachsen,14612,SK Dresden,A80+,M,1,0,1
35705,2020-06-02,2020-03-26,2020-03-18,14,Sachsen,14612,SK Dresden,A15-A34,M,1,0,1
35706,2020-06-02,2020-03-26,2020-03-18,14,Sachsen,14612,SK Dresden,A15-A34,W,2,0,2
35707,2020-06-02,2020-03-26,2020-03-18,14,Sachsen,14612,SK Dresden,A35-A59,W,1,0,1
35708,2020-06-02,2020-03-26,2020-03-18,14,Sachsen,14612,SK Dresden,A60-A79,W,1,0,1
36027,2020-06-02,2020-03-26,2020-03-19,14,Sachsen,14612,SK Dresden,A15-A34,M,1,0,1
36028,2020-06-02,2020-03-26,2020-03-19,14,Sachsen,14612,SK Dresden,A15-A34,W,1,0,1
36029,2020-06-02,2020-03-26,2020-03-19,14,Sachsen,14612,SK Dresden,A35-A59,W,1,0,1
36030,2020-06-02,2020-03-26,2020-03-19,14,Sachsen,14612,SK Dresden,A60-A79,M,1,0,1
36031,2020-06-02,2020-03-26,2020-03-19,14,Sachsen,14612,SK Dresden,A60-A79,W,1,0,1
36408,2020-06-02,2020-03-26,2020-03-20,14,Sachsen,14612,SK Dresden,A35-A59,M,1,0,1
36723,2020-06-02,2020-03-26,2020-03-21,14,Sachsen,14612,SK Dresden,A15-A34,M,1,0,1
36724,2020-06-02,2020-03-26,2020-03-21,14,Sachsen,14612,SK Dresden,A15-A34,W,3,0,3
37010,2020-06-02,2020-03-26,2020-03-22,14,Sachsen,14612,SK Dresden,A35-A59,W,1,0,1
37317,2020-06-02,2020-03-26,2020-03-23,14,Sachsen,14612,SK Dresden,A35-A59,W,2,0,2
37562,2020-06-02,2020-03-26,2020-03-24,14,Sachsen,14612,SK Dresden,A60-A79,W,1,0,1
37702,2020-06-02,2020-03-26,2020-03-25,14,Sachsen,14612,SK Dresden,A35-A59,W,1,0,1
37766,2020-06-02,2020-03-26,2020-03-26,14,Sachsen,14612,SK Dresden,A35-A59,M,1,0,1
37767,2020-06-02,2020-03-26,2020-03-26,14,Sachsen,14612,SK Dresden,A60-A79,M,1,0,1
38570,2020-06-02,2020-03-26,NA,14,Sachsen,14612,SK Dresden,A15-A34,M,2,0,2
38571,2020-06-02,2020-03-26,NA,14,Sachsen,14612,SK Dresden,A60-A79,W,2,0,2
38572,2020-06-02,2020-03-26,NA,14,Sachsen,14612,SK Dresden,A80+,W,1,0,1
38677,2020-06-02,2020-03-27,2020-03-09,14,Sachsen,14612,SK Dresden,A60-A79,M,1,0,1
38749,2020-06-02,2020-03-27,2020-03-11,14,Sachsen,14612,SK Dresden,A60-A79,W,1,0,1
39026,2020-06-02,2020-03-27,2020-03-14,14,Sachsen,14612,SK Dresden,A15-A34,M,1,0,1
39159,2020-06-02,2020-03-27,2020-03-15,14,Sachsen,14612,SK Dresden,A60-A79,W,1,0,1
39397,2020-06-02,2020-03-27,2020-03-16,14,Sachsen,14612,SK Dresden,A60-A79,W,1,0,1
39639,2020-06-02,2020-03-27,2020-03-17,14,Sachsen,14612,SK Dresden,A35-A59,W,1,0,1
39909,2020-06-02,2020-03-27,2020-03-18,14,Sachsen,14612,SK Dresden,A15-A34,M,1,0,1
39910,2020-06-02,2020-03-27,2020-03-18,14,Sachsen,14612,SK Dresden,A35-A59,M,1,0,1
40191,2020-06-02,2020-03-27,2020-03-19,14,Sachsen,14612,SK Dresden,A35-A59,M,1,0,1
40192,2020-06-02,2020-03-27,2020-03-19,14,Sachsen,14612,SK Dresden,A35-A59,W,1,0,1
40831,2020-06-02,2020-03-27,2020-03-21,14,Sachsen,14612,SK Dresden,A35-A59,W,1,0,1
40832,2020-06-02,2020-03-27,2020-03-21,14,Sachsen,14612,SK Dresden,A60-A79,W,1,0,1
41097,2020-06-02,2020-03-27,2020-03-22,14,Sachsen,14612,SK Dresden,A80+,W,1,0,1
41479,2020-06-02,2020-03-27,2020-03-23,14,Sachsen,14612,SK Dresden,A15-A34,M,1,0,1
41480,2020-06-02,2020-03-27,2020-03-23,14,Sachsen,14612,SK Dresden,A15-A34,W,1,0,1
41481,2020-06-02,2020-03-27,2020-03-23,14,Sachsen,14612,SK Dresden,A35-A59,W,1,0,1
41789,2020-06-02,2020-03-27,2020-03-24,14,Sachsen,14612,SK Dresden,A15-A34,W,1,0,1
41790,2020-06-02,2020-03-27,2020-03-24,14,Sachsen,14612,SK Dresden,A35-A59,W,3,0,3
41791,2020-06-02,2020-03-27,2020-03-24,14,Sachsen,14612,SK Dresden,A60-A79,M,1,0,1
42055,2020-06-02,2020-03-27,2020-03-25,14,Sachsen,14612,SK Dresden,A00-A04,W,1,0,1
42056,2020-06-02,2020-03-27,2020-03-25,14,Sachsen,14612,SK Dresden,A15-A34,M,1,0,1
42057,2020-06-02,2020-03-27,2020-03-25,14,Sachsen,14612,SK Dresden,A15-A34,W,1,0,1
42058,2020-06-02,2020-03-27,2020-03-25,14,Sachsen,14612,SK Dresden,A35-A59,W,1,0,1
42227,2020-06-02,2020-03-27,2020-03-26,14,Sachsen,14612,SK Dresden,A15-A34,M,1,0,1
42228,2020-06-02,2020-03-27,2020-03-26,14,Sachsen,14612,SK Dresden,A35-A59,W,1,0,1
43106,2020-06-02,2020-03-27,NA,14,Sachsen,14612,SK Dresden,A05-A14,W,1,0,1
43107,2020-06-02,2020-03-27,NA,14,Sachsen,14612,SK Dresden,A15-A34,W,3,0,3
43108,2020-06-02,2020-03-27,NA,14,Sachsen,14612,SK Dresden,A35-A59,M,3,0,3
43109,2020-06-02,2020-03-27,NA,14,Sachsen,14612,SK Dresden,A35-A59,W,1,0,1
43110,2020-06-02,2020-03-27,NA,14,Sachsen,14612,SK Dresden,A80+,W,1,1,0
43543,2020-06-02,2020-03-28,2020-03-15,14,Sachsen,14612,SK Dresden,A15-A34,W,1,0,1
43703,2020-06-02,2020-03-28,2020-03-16,14,Sachsen,14612,SK Dresden,A15-A34,M,1,0,1
43868,2020-06-02,2020-03-28,2020-03-17,14,Sachsen,14612,SK Dresden,A15-A34,W,1,0,1
43869,2020-06-02,2020-03-28,2020-03-17,14,Sachsen,14612,SK Dresden,A35-A59,W,1,0,1
44271,2020-06-02,2020-03-28,2020-03-19,14,Sachsen,14612,SK Dresden,A15-A34,M,1,0,1
44272,2020-06-02,2020-03-28,2020-03-19,14,Sachsen,14612,SK Dresden,A35-A59,M,1,0,1
44514,2020-06-02,2020-03-28,2020-03-20,14,Sachsen,14612,SK Dresden,A35-A59,W,2,0,2
44755,2020-06-02,2020-03-28,2020-03-21,14,Sachsen,14612,SK Dresden,A15-A34,W,1,0,1
44756,2020-06-02,2020-03-28,2020-03-21,14,Sachsen,14612,SK Dresden,A35-A59,M,1,0,1
44757,2020-06-02,2020-03-28,2020-03-21,14,Sachsen,14612,SK Dresden,A35-A59,W,1,0,1
44970,2020-06-02,2020-03-28,2020-03-22,14,Sachsen,14612,SK Dresden,A35-A59,M,1,0,1
44971,2020-06-02,2020-03-28,2020-03-22,14,Sachsen,14612,SK Dresden,A35-A59,W,1,0,1
45246,2020-06-02,2020-03-28,2020-03-23,14,Sachsen,14612,SK Dresden,A35-A59,W,1,0,1
45247,2020-06-02,2020-03-28,2020-03-23,14,Sachsen,14612,SK Dresden,A80+,W,1,0,1
45486,2020-06-02,2020-03-28,2020-03-24,14,Sachsen,14612,SK Dresden,A00-A04,M,1,0,1
45487,2020-06-02,2020-03-28,2020-03-24,14,Sachsen,14612,SK Dresden,A60-A79,M,1,0,1
45488,2020-06-02,2020-03-28,2020-03-24,14,Sachsen,14612,SK Dresden,A60-A79,W,2,0,2
45764,2020-06-02,2020-03-28,2020-03-25,14,Sachsen,14612,SK Dresden,A15-A34,M,1,0,1
45765,2020-06-02,2020-03-28,2020-03-25,14,Sachsen,14612,SK Dresden,A35-A59,M,1,0,1
45999,2020-06-02,2020-03-28,2020-03-26,14,Sachsen,14612,SK Dresden,A15-A34,W,1,0,1
46000,2020-06-02,2020-03-28,2020-03-26,14,Sachsen,14612,SK Dresden,A35-A59,W,1,0,1
46221,2020-06-02,2020-03-28,2020-04-18,14,Sachsen,14612,SK Dresden,A35-A59,W,1,0,1
47058,2020-06-02,2020-03-29,2020-03-14,14,Sachsen,14612,SK Dresden,A35-A59,W,1,0,1
47451,2020-06-02,2020-03-29,2020-03-18,14,Sachsen,14612,SK Dresden,A35-A59,M,1,0,1
48307,2020-06-02,2020-03-29,2020-03-24,14,Sachsen,14612,SK Dresden,A35-A59,W,1,0,1
48478,2020-06-02,2020-03-29,2020-03-25,14,Sachsen,14612,SK Dresden,A60-A79,W,1,0,1
48638,2020-06-02,2020-03-29,2020-03-26,14,Sachsen,14612,SK Dresden,A15-A34,W,2,0,2
48759,2020-06-02,2020-03-29,2020-03-27,14,Sachsen,14612,SK Dresden,A15-A34,M,1,0,1
49387,2020-06-02,2020-03-29,NA,14,Sachsen,14612,SK Dresden,A15-A34,W,1,0,1
49388,2020-06-02,2020-03-29,NA,14,Sachsen,14612,SK Dresden,A35-A59,M,1,0,1
49775,2020-06-02,2020-03-30,2020-03-16,14,Sachsen,14612,SK Dresden,A35-A59,M,1,0,1
50020,2020-06-02,2020-03-30,2020-03-18,14,Sachsen,14612,SK Dresden,A15-A34,W,1,0,1
50144,2020-06-02,2020-03-30,2020-03-19,14,Sachsen,14612,SK Dresden,A15-A34,W,1,0,1
50145,2020-06-02,2020-03-30,2020-03-19,14,Sachsen,14612,SK Dresden,A35-A59,M,1,0,1
50510,2020-06-02,2020-03-30,2020-03-21,14,Sachsen,14612,SK Dresden,A35-A59,W,1,0,1
50663,2020-06-02,2020-03-30,2020-03-22,14,Sachsen,14612,SK Dresden,A15-A34,M,1,0,1
50664,2020-06-02,2020-03-30,2020-03-22,14,Sachsen,14612,SK Dresden,A35-A59,M,1,0,1
51100,2020-06-02,2020-03-30,2020-03-24,14,Sachsen,14612,SK Dresden,A60-A79,M,1,0,1
51507,2020-06-02,2020-03-30,2020-03-26,14,Sachsen,14612,SK Dresden,A35-A59,M,1,0,1
51688,2020-06-02,2020-03-30,2020-03-27,14,Sachsen,14612,SK Dresden,A15-A34,M,1,0,1
51689,2020-06-02,2020-03-30,2020-03-27,14,Sachsen,14612,SK Dresden,A15-A34,W,1,0,1
51690,2020-06-02,2020-03-30,2020-03-27,14,Sachsen,14612,SK Dresden,A60-A79,M,1,0,1
51811,2020-06-02,2020-03-30,2020-03-28,14,Sachsen,14612,SK Dresden,A15-A34,W,1,0,1
51812,2020-06-02,2020-03-30,2020-03-28,14,Sachsen,14612,SK Dresden,A80+,W,1,0,1
51936,2020-06-02,2020-03-30,2020-03-30,14,Sachsen,14612,SK Dresden,A35-A59,W,2,0,2
52674,2020-06-02,2020-03-30,NA,14,Sachsen,14612,SK Dresden,A60-A79,M,1,1,0
52675,2020-06-02,2020-03-30,NA,14,Sachsen,14612,SK Dresden,A80+,M,1,0,1
52960,2020-06-02,2020-03-31,2020-03-15,14,Sachsen,14612,SK Dresden,A80+,M,1,0,1
52961,2020-06-02,2020-03-31,2020-03-15,14,Sachsen,14612,SK Dresden,A80+,W,1,0,1
53708,2020-06-02,2020-03-31,2020-03-20,14,Sachsen,14612,SK Dresden,A15-A34,W,1,0,1
53709,2020-06-02,2020-03-31,2020-03-20,14,Sachsen,14612,SK Dresden,A35-A59,M,1,0,1
53918,2020-06-02,2020-03-31,2020-03-21,14,Sachsen,14612,SK Dresden,A35-A59,M,1,0,1
54115,2020-06-02,2020-03-31,2020-03-22,14,Sachsen,14612,SK Dresden,A35-A59,M,1,0,1
54905,2020-06-02,2020-03-31,2020-03-25,14,Sachsen,14612,SK Dresden,A15-A34,W,1,0,1
54906,2020-06-02,2020-03-31,2020-03-25,14,Sachsen,14612,SK Dresden,A35-A59,M,2,0,2
55207,2020-06-02,2020-03-31,2020-03-26,14,Sachsen,14612,SK Dresden,A15-A34,W,1,0,1
55208,2020-06-02,2020-03-31,2020-03-26,14,Sachsen,14612,SK Dresden,A35-A59,W,1,0,1
55527,2020-06-02,2020-03-31,2020-03-27,14,Sachsen,14612,SK Dresden,A15-A34,M,1,0,1
55528,2020-06-02,2020-03-31,2020-03-27,14,Sachsen,14612,SK Dresden,A80+,W,1,0,1
55842,2020-06-02,2020-03-31,2020-03-28,14,Sachsen,14612,SK Dresden,A15-A34,M,1,0,1
55843,2020-06-02,2020-03-31,2020-03-28,14,Sachsen,14612,SK Dresden,A35-A59,W,3,0,3
56262,2020-06-02,2020-03-31,2020-03-30,14,Sachsen,14612,SK Dresden,A35-A59,M,1,0,1
56263,2020-06-02,2020-03-31,2020-03-30,14,Sachsen,14612,SK Dresden,A60-A79,W,1,0,1
57325,2020-06-02,2020-04-01,2020-03-07,14,Sachsen,14612,SK Dresden,A60-A79,M,1,0,1
57514,2020-06-02,2020-04-01,2020-03-15,14,Sachsen,14612,SK Dresden,A15-A34,M,1,0,1
57813,2020-06-02,2020-04-01,2020-03-18,14,Sachsen,14612,SK Dresden,A60-A79,M,1,0,1
57941,2020-06-02,2020-04-01,2020-03-19,14,Sachsen,14612,SK Dresden,A60-A79,M,1,0,1
58143,2020-06-02,2020-04-01,2020-03-20,14,Sachsen,14612,SK Dresden,A35-A59,W,1,0,1
58144,2020-06-02,2020-04-01,2020-03-20,14,Sachsen,14612,SK Dresden,A60-A79,W,1,0,1
58145,2020-06-02,2020-04-01,2020-03-20,14,Sachsen,14612,SK Dresden,A80+,M,1,0,1
58146,2020-06-02,2020-04-01,2020-03-20,14,Sachsen,14612,SK Dresden,A80+,W,1,0,1
58508,2020-06-02,2020-04-01,2020-03-22,14,Sachsen,14612,SK Dresden,A35-A59,M,1,0,1
59559,2020-06-02,2020-04-01,2020-03-26,14,Sachsen,14612,SK Dresden,A15-A34,W,1,0,1
60254,2020-06-02,2020-04-01,2020-03-28,14,Sachsen,14612,SK Dresden,A35-A59,M,1,0,1
60255,2020-06-02,2020-04-01,2020-03-28,14,Sachsen,14612,SK Dresden,A35-A59,W,1,0,1
60820,2020-06-02,2020-04-01,2020-03-30,14,Sachsen,14612,SK Dresden,A35-A59,W,1,0,1
61003,2020-06-02,2020-04-01,2020-03-31,14,Sachsen,14612,SK Dresden,A35-A59,M,1,0,1
61004,2020-06-02,2020-04-01,2020-03-31,14,Sachsen,14612,SK Dresden,A35-A59,W,3,0,3
62006,2020-06-02,2020-04-01,NA,14,Sachsen,14612,SK Dresden,A15-A34,M,1,0,1
62007,2020-06-02,2020-04-01,NA,14,Sachsen,14612,SK Dresden,A15-A34,W,2,0,2
62008,2020-06-02,2020-04-01,NA,14,Sachsen,14612,SK Dresden,A35-A59,W,1,0,1
62512,2020-06-02,2020-04-02,2020-03-18,14,Sachsen,14612,SK Dresden,A15-A34,M,1,0,1
63298,2020-06-02,2020-04-02,2020-03-23,14,Sachsen,14612,SK Dresden,A35-A59,M,1,0,1
63299,2020-06-02,2020-04-02,2020-03-23,14,Sachsen,14612,SK Dresden,A35-A59,W,1,0,1
63496,2020-06-02,2020-04-02,2020-03-24,14,Sachsen,14612,SK Dresden,A35-A59,M,1,0,1
64036,2020-06-02,2020-04-02,2020-03-26,14,Sachsen,14612,SK Dresden,A35-A59,W,1,0,1
64984,2020-06-02,2020-04-02,2020-03-29,14,Sachsen,14612,SK Dresden,A35-A59,M,1,0,1
64985,2020-06-02,2020-04-02,2020-03-29,14,Sachsen,14612,SK Dresden,A60-A79,W,1,0,1
65864,2020-06-02,2020-04-02,2020-04-01,14,Sachsen,14612,SK Dresden,A35-A59,W,1,0,1
65946,2020-06-02,2020-04-02,2020-04-02,14,Sachsen,14612,SK Dresden,A35-A59,M,1,0,1
65947,2020-06-02,2020-04-02,2020-04-02,14,Sachsen,14612,SK Dresden,A60-A79,M,1,0,1
67326,2020-06-02,2020-04-03,2020-03-19,14,Sachsen,14612,SK Dresden,A15-A34,M,1,0,1
67549,2020-06-02,2020-04-03,2020-03-21,14,Sachsen,14612,SK Dresden,A15-A34,W,1,0,1
67830,2020-06-02,2020-04-03,2020-03-23,14,Sachsen,14612,SK Dresden,A60-A79,M,1,0,1
68001,2020-06-02,2020-04-03,2020-03-24,14,Sachsen,14612,SK Dresden,A35-A59,M,1,0,1
68002,2020-06-02,2020-04-03,2020-03-24,14,Sachsen,14612,SK Dresden,A35-A59,W,1,0,1
68213,2020-06-02,2020-04-03,2020-03-25,14,Sachsen,14612,SK Dresden,A80+,M,1,0,1
68443,2020-06-02,2020-04-03,2020-03-26,14,Sachsen,14612,SK Dresden,A15-A34,W,1,0,1
68707,2020-06-02,2020-04-03,2020-03-27,14,Sachsen,14612,SK Dresden,A15-A34,W,1,0,1
68992,2020-06-02,2020-04-03,2020-03-28,14,Sachsen,14612,SK Dresden,A60-A79,W,1,0,1
69577,2020-06-02,2020-04-03,2020-03-30,14,Sachsen,14612,SK Dresden,A15-A34,M,1,0,1
69578,2020-06-02,2020-04-03,2020-03-30,14,Sachsen,14612,SK Dresden,A35-A59,W,1,0,1
69872,2020-06-02,2020-04-03,2020-03-31,14,Sachsen,14612,SK Dresden,A35-A59,M,1,0,1
70188,2020-06-02,2020-04-03,2020-04-01,14,Sachsen,14612,SK Dresden,A00-A04,M,1,0,1
70189,2020-06-02,2020-04-03,2020-04-01,14,Sachsen,14612,SK Dresden,A60-A79,W,2,0,2
70394,2020-06-02,2020-04-03,2020-04-02,14,Sachsen,14612,SK Dresden,A15-A34,M,1,0,1
70395,2020-06-02,2020-04-03,2020-04-02,14,Sachsen,14612,SK Dresden,A35-A59,M,1,0,1
70396,2020-06-02,2020-04-03,2020-04-02,14,Sachsen,14612,SK Dresden,A80+,W,1,0,1
70481,2020-06-02,2020-04-03,2020-04-03,14,Sachsen,14612,SK Dresden,A15-A34,M,1,0,1
70482,2020-06-02,2020-04-03,2020-04-03,14,Sachsen,14612,SK Dresden,A15-A34,W,1,0,1
71475,2020-06-02,2020-04-03,NA,14,Sachsen,14612,SK Dresden,A15-A34,M,1,0,1
71476,2020-06-02,2020-04-03,NA,14,Sachsen,14612,SK Dresden,A15-A34,W,2,0,2
71477,2020-06-02,2020-04-03,NA,14,Sachsen,14612,SK Dresden,A35-A59,W,2,0,2
72398,2020-06-02,2020-04-04,2020-03-26,14,Sachsen,14612,SK Dresden,A15-A34,W,1,0,1
72543,2020-06-02,2020-04-04,2020-03-27,14,Sachsen,14612,SK Dresden,A35-A59,W,1,0,1
72707,2020-06-02,2020-04-04,2020-03-28,14,Sachsen,14612,SK Dresden,A35-A59,M,1,0,1
72708,2020-06-02,2020-04-04,2020-03-28,14,Sachsen,14612,SK Dresden,A35-A59,W,1,0,1
72709,2020-06-02,2020-04-04,2020-03-28,14,Sachsen,14612,SK Dresden,A60-A79,M,1,0,1
72710,2020-06-02,2020-04-04,2020-03-28,14,Sachsen,14612,SK Dresden,A60-A79,W,1,0,1
73112,2020-06-02,2020-04-04,2020-03-30,14,Sachsen,14612,SK Dresden,A35-A59,W,1,0,1
73316,2020-06-02,2020-04-04,2020-03-31,14,Sachsen,14612,SK Dresden,A15-A34,M,2,0,2
73317,2020-06-02,2020-04-04,2020-03-31,14,Sachsen,14612,SK Dresden,A35-A59,M,1,0,1
73872,2020-06-02,2020-04-04,2020-04-02,14,Sachsen,14612,SK Dresden,A15-A34,M,1,0,1
74053,2020-06-02,2020-04-04,2020-04-03,14,Sachsen,14612,SK Dresden,A35-A59,M,1,0,1
74112,2020-06-02,2020-04-04,2020-04-04,14,Sachsen,14612,SK Dresden,A15-A34,W,1,0,1
74128,2020-06-02,2020-04-04,2020-04-06,14,Sachsen,14612,SK Dresden,A35-A59,W,1,0,1
74854,2020-06-02,2020-04-04,NA,14,Sachsen,14612,SK Dresden,A15-A34,M,1,0,1
74855,2020-06-02,2020-04-04,NA,14,Sachsen,14612,SK Dresden,A15-A34,W,2,0,2
74856,2020-06-02,2020-04-04,NA,14,Sachsen,14612,SK Dresden,A35-A59,M,2,0,2
74857,2020-06-02,2020-04-04,NA,14,Sachsen,14612,SK Dresden,A80+,W,1,0,1
76162,2020-06-02,2020-04-05,2020-04-02,14,Sachsen,14612,SK Dresden,A35-A59,M,1,0,1
76294,2020-06-02,2020-04-05,2020-04-03,14,Sachsen,14612,SK Dresden,A60-A79,M,1,0,1
76295,2020-06-02,2020-04-05,2020-04-03,14,Sachsen,14612,SK Dresden,A60-A79,W,1,0,1
76893,2020-06-02,2020-04-05,NA,14,Sachsen,14612,SK Dresden,A60-A79,M,1,0,1
77149,2020-06-02,2020-04-06,2020-03-20,14,Sachsen,14612,SK Dresden,A35-A59,M,1,0,1
79019,2020-06-02,2020-04-06,2020-04-06,14,Sachsen,14612,SK Dresden,A15-A34,M,1,0,1
79020,2020-06-02,2020-04-06,2020-04-06,14,Sachsen,14612,SK Dresden,A60-A79,W,1,0,1
79751,2020-06-02,2020-04-06,NA,14,Sachsen,14612,SK Dresden,A35-A59,M,1,0,1
80325,2020-06-02,2020-04-07,2020-03-25,14,Sachsen,14612,SK Dresden,A35-A59,W,1,0,1
80511,2020-06-02,2020-04-07,2020-03-27,14,Sachsen,14612,SK Dresden,A35-A59,M,1,0,1
80751,2020-06-02,2020-04-07,2020-03-29,14,Sachsen,14612,SK Dresden,A80+,W,1,0,1
81109,2020-06-02,2020-04-07,2020-03-31,14,Sachsen,14612,SK Dresden,A15-A34,M,1,0,1
81344,2020-06-02,2020-04-07,2020-04-01,14,Sachsen,14612,SK Dresden,A15-A34,W,1,0,1
81958,2020-06-02,2020-04-07,2020-04-03,14,Sachsen,14612,SK Dresden,A35-A59,M,1,0,1
81959,2020-06-02,2020-04-07,2020-04-03,14,Sachsen,14612,SK Dresden,A35-A59,W,1,0,1
82261,2020-06-02,2020-04-07,2020-04-04,14,Sachsen,14612,SK Dresden,A15-A34,W,1,0,1
83670,2020-06-02,2020-04-07,NA,14,Sachsen,14612,SK Dresden,A15-A34,W,1,0,1
83671,2020-06-02,2020-04-07,NA,14,Sachsen,14612,SK Dresden,A35-A59,W,1,0,1
84360,2020-06-02,2020-04-08,2020-03-28,14,Sachsen,14612,SK Dresden,A15-A34,W,1,0,1
84611,2020-06-02,2020-04-08,2020-03-30,14,Sachsen,14612,SK Dresden,A35-A59,M,1,0,1
85217,2020-06-02,2020-04-08,2020-04-02,14,Sachsen,14612,SK Dresden,A60-A79,M,1,0,1
85534,2020-06-02,2020-04-08,2020-04-03,14,Sachsen,14612,SK Dresden,A35-A59,M,1,0,1
85535,2020-06-02,2020-04-08,2020-04-03,14,Sachsen,14612,SK Dresden,A35-A59,W,2,0,2
85821,2020-06-02,2020-04-08,2020-04-04,14,Sachsen,14612,SK Dresden,A15-A34,M,1,0,1
85822,2020-06-02,2020-04-08,2020-04-04,14,Sachsen,14612,SK Dresden,A35-A59,W,1,0,1
86432,2020-06-02,2020-04-08,2020-04-06,14,Sachsen,14612,SK Dresden,A35-A59,M,1,0,1
88598,2020-06-02,2020-04-09,2020-04-01,14,Sachsen,14612,SK Dresden,A60-A79,M,1,0,1
88799,2020-06-02,2020-04-09,2020-04-02,14,Sachsen,14612,SK Dresden,A15-A34,M,1,0,1
88800,2020-06-02,2020-04-09,2020-04-02,14,Sachsen,14612,SK Dresden,A15-A34,W,1,0,1
89846,2020-06-02,2020-04-09,2020-04-06,14,Sachsen,14612,SK Dresden,A60-A79,M,1,0,1
90162,2020-06-02,2020-04-09,2020-04-07,14,Sachsen,14612,SK Dresden,A15-A34,M,1,0,1
90163,2020-06-02,2020-04-09,2020-04-07,14,Sachsen,14612,SK Dresden,A35-A59,M,1,0,1
91335,2020-06-02,2020-04-09,NA,14,Sachsen,14612,SK Dresden,A35-A59,M,1,0,1
94921,2020-06-02,2020-04-11,2020-04-07,14,Sachsen,14612,SK Dresden,A35-A59,M,1,0,1
95390,2020-06-02,2020-04-11,2020-04-10,14,Sachsen,14612,SK Dresden,A35-A59,M,1,0,1
96051,2020-06-02,2020-04-11,NA,14,Sachsen,14612,SK Dresden,A05-A14,W,1,0,1
96052,2020-06-02,2020-04-11,NA,14,Sachsen,14612,SK Dresden,A15-A34,W,1,0,1
97070,2020-06-02,2020-04-12,2020-04-12,14,Sachsen,14612,SK Dresden,A60-A79,M,1,0,1
97481,2020-06-02,2020-04-12,NA,14,Sachsen,14612,SK Dresden,A35-A59,M,1,0,1
97482,2020-06-02,2020-04-12,NA,14,Sachsen,14612,SK Dresden,A35-A59,W,1,0,1
97483,2020-06-02,2020-04-12,NA,14,Sachsen,14612,SK Dresden,A60-A79,W,1,0,1
98279,2020-06-02,2020-04-13,2020-04-11,14,Sachsen,14612,SK Dresden,A80+,M,1,0,1
99059,2020-06-02,2020-04-14,2020-04-03,14,Sachsen,14612,SK Dresden,A35-A59,M,1,0,1
99947,2020-06-02,2020-04-14,2020-04-11,14,Sachsen,14612,SK Dresden,A35-A59,M,1,0,1
100056,2020-06-02,2020-04-14,2020-04-12,14,Sachsen,14612,SK Dresden,A15-A34,M,1,0,1
100057,2020-06-02,2020-04-14,2020-04-12,14,Sachsen,14612,SK Dresden,A35-A59,M,1,0,1
100730,2020-06-02,2020-04-14,NA,14,Sachsen,14612,SK Dresden,A80+,W,1,0,1
101403,2020-06-02,2020-04-15,2020-04-07,14,Sachsen,14612,SK Dresden,A60-A79,W,1,0,1
101565,2020-06-02,2020-04-15,2020-04-08,14,Sachsen,14612,SK Dresden,A05-A14,W,1,0,1
101966,2020-06-02,2020-04-15,2020-04-10,14,Sachsen,14612,SK Dresden,A35-A59,W,1,0,1
102163,2020-06-02,2020-04-15,2020-04-11,14,Sachsen,14612,SK Dresden,A80+,W,1,0,1
102698,2020-06-02,2020-04-15,2020-04-15,14,Sachsen,14612,SK Dresden,A80+,W,1,0,1
102714,2020-06-02,2020-04-15,2020-04-16,14,Sachsen,14612,SK Dresden,A35-A59,M,1,0,1
103382,2020-06-02,2020-04-15,NA,14,Sachsen,14612,SK Dresden,A15-A34,M,1,0,1
103383,2020-06-02,2020-04-15,NA,14,Sachsen,14612,SK Dresden,A80+,M,1,1,0
103486,2020-06-02,2020-04-16,2020-03-22,14,Sachsen,14612,SK Dresden,A60-A79,M,1,0,1
104846,2020-06-02,2020-04-16,2020-04-12,14,Sachsen,14612,SK Dresden,A60-A79,M,1,0,1
106738,2020-06-02,2020-04-17,2020-04-09,14,Sachsen,14612,SK Dresden,A35-A59,M,1,0,1
107258,2020-06-02,2020-04-17,2020-04-13,14,Sachsen,14612,SK Dresden,A35-A59,M,1,0,1
107259,2020-06-02,2020-04-17,2020-04-13,14,Sachsen,14612,SK Dresden,A35-A59,W,1,0,1
107260,2020-06-02,2020-04-17,2020-04-13,14,Sachsen,14612,SK Dresden,A80+,M,1,0,1
107428,2020-06-02,2020-04-17,2020-04-14,14,Sachsen,14612,SK Dresden,A15-A34,W,1,0,1
107429,2020-06-02,2020-04-17,2020-04-14,14,Sachsen,14612,SK Dresden,A35-A59,W,1,0,1
107806,2020-06-02,2020-04-17,2020-04-20,14,Sachsen,14612,SK Dresden,A15-A34,M,1,0,1
107811,2020-06-02,2020-04-17,2020-04-23,14,Sachsen,14612,SK Dresden,A15-A34,W,1,0,1
108445,2020-06-02,2020-04-17,NA,14,Sachsen,14612,SK Dresden,A15-A34,W,2,0,2
108446,2020-06-02,2020-04-17,NA,14,Sachsen,14612,SK Dresden,A35-A59,W,1,0,1
108447,2020-06-02,2020-04-17,NA,14,Sachsen,14612,SK Dresden,A60-A79,W,1,1,0
108448,2020-06-02,2020-04-17,NA,14,Sachsen,14612,SK Dresden,A80+,M,2,2,0
108449,2020-06-02,2020-04-17,NA,14,Sachsen,14612,SK Dresden,A80+,W,3,0,3
110870,2020-06-02,2020-04-19,2020-04-17,14,Sachsen,14612,SK Dresden,A15-A34,M,1,0,1
112060,2020-06-02,2020-04-20,2020-04-17,14,Sachsen,14612,SK Dresden,A35-A59,W,1,0,1
112188,2020-06-02,2020-04-20,2020-04-19,14,Sachsen,14612,SK Dresden,A35-A59,M,1,0,1
112189,2020-06-02,2020-04-20,2020-04-19,14,Sachsen,14612,SK Dresden,A35-A59,W,1,0,1
112986,2020-06-02,2020-04-21,2020-04-12,14,Sachsen,14612,SK Dresden,A60-A79,M,1,0,1
113208,2020-06-02,2020-04-21,2020-04-15,14,Sachsen,14612,SK Dresden,A35-A59,W,1,0,1
113481,2020-06-02,2020-04-21,2020-04-17,14,Sachsen,14612,SK Dresden,A15-A34,M,1,0,1
113786,2020-06-02,2020-04-21,2020-04-19,14,Sachsen,14612,SK Dresden,A15-A34,M,1,0,1
113874,2020-06-02,2020-04-21,2020-04-20,14,Sachsen,14612,SK Dresden,A60-A79,W,1,0,1
114429,2020-06-02,2020-04-21,NA,14,Sachsen,14612,SK Dresden,A15-A34,W,2,0,2
114430,2020-06-02,2020-04-21,NA,14,Sachsen,14612,SK Dresden,A35-A59,M,2,0,2
115469,2020-06-02,2020-04-22,2020-04-19,14,Sachsen,14612,SK Dresden,A80+,W,1,0,1
115634,2020-06-02,2020-04-22,2020-04-20,14,Sachsen,14612,SK Dresden,A80+,M,1,0,1
116378,2020-06-02,2020-04-22,NA,14,Sachsen,14612,SK Dresden,A15-A34,M,1,0,1
116379,2020-06-02,2020-04-22,NA,14,Sachsen,14612,SK Dresden,A15-A34,W,1,0,1
118048,2020-06-02,2020-04-23,NA,14,Sachsen,14612,SK Dresden,A15-A34,M,1,0,1
118379,2020-06-02,2020-04-24,2020-04-17,14,Sachsen,14612,SK Dresden,A15-A34,M,1,0,1
118645,2020-06-02,2020-04-24,2020-04-20,14,Sachsen,14612,SK Dresden,A15-A34,M,1,0,1
119568,2020-06-02,2020-04-24,NA,14,Sachsen,14612,SK Dresden,A15-A34,W,2,0,2
119569,2020-06-02,2020-04-24,NA,14,Sachsen,14612,SK Dresden,A35-A59,W,1,0,1
119570,2020-06-02,2020-04-24,NA,14,Sachsen,14612,SK Dresden,A60-A79,W,1,0,1
120610,2020-06-02,2020-04-25,NA,14,Sachsen,14612,SK Dresden,A35-A59,W,2,0,2
120611,2020-06-02,2020-04-25,NA,14,Sachsen,14612,SK Dresden,A60-A79,W,1,0,1
120859,2020-06-02,2020-04-26,2020-04-22,14,Sachsen,14612,SK Dresden,A15-A34,M,1,0,1
120914,2020-06-02,2020-04-26,2020-04-23,14,Sachsen,14612,SK Dresden,A15-A34,M,1,0,1
120964,2020-06-02,2020-04-26,2020-04-24,14,Sachsen,14612,SK Dresden,A35-A59,M,1,0,1
120999,2020-06-02,2020-04-26,2020-04-26,14,Sachsen,14612,SK Dresden,A15-A34,M,1,0,1
121204,2020-06-02,2020-04-26,NA,14,Sachsen,14612,SK Dresden,A80+,W,1,0,1
122170,2020-06-02,2020-04-28,2020-04-07,14,Sachsen,14612,SK Dresden,A15-A34,M,1,0,1
122817,2020-06-02,2020-04-28,2020-04-26,14,Sachsen,14612,SK Dresden,A15-A34,W,1,0,1
122818,2020-06-02,2020-04-28,2020-04-26,14,Sachsen,14612,SK Dresden,A80+,M,1,0,1
123735,2020-06-02,2020-04-29,2020-04-24,14,Sachsen,14612,SK Dresden,A15-A34,M,1,0,1
124082,2020-06-02,2020-04-29,2020-04-28,14,Sachsen,14612,SK Dresden,A80+,M,1,0,1
124501,2020-06-02,2020-04-29,NA,14,Sachsen,14612,SK Dresden,A80+,W,4,0,4
124818,2020-06-02,2020-04-30,2020-04-24,14,Sachsen,14612,SK Dresden,A15-A34,M,1,0,1
125264,2020-06-02,2020-04-30,2020-04-29,14,Sachsen,14612,SK Dresden,A00-A04,W,1,0,1
125305,2020-06-02,2020-04-30,2020-04-30,14,Sachsen,14612,SK Dresden,A35-A59,W,1,0,1
126199,2020-06-02,2020-05-01,2020-04-30,14,Sachsen,14612,SK Dresden,A15-A34,M,1,0,1
126805,2020-06-02,2020-05-02,2020-04-30,14,Sachsen,14612,SK Dresden,A60-A79,W,1,0,1
127416,2020-06-02,2020-05-03,NA,14,Sachsen,14612,SK Dresden,A15-A34,M,1,0,1
128162,2020-06-02,2020-05-05,2020-04-26,14,Sachsen,14612,SK Dresden,A35-A59,W,1,0,1
128386,2020-06-02,2020-05-05,2020-05-01,14,Sachsen,14612,SK Dresden,A00-A04,W,1,0,1
128387,2020-06-02,2020-05-05,2020-05-01,14,Sachsen,14612,SK Dresden,A15-A34,M,1,0,1
128446,2020-06-02,2020-05-05,2020-05-02,14,Sachsen,14612,SK Dresden,A35-A59,M,1,0,1
128504,2020-06-02,2020-05-05,2020-05-03,14,Sachsen,14612,SK Dresden,A15-A34,W,1,0,1
128926,2020-06-02,2020-05-05,NA,14,Sachsen,14612,SK Dresden,A15-A34,M,1,0,1
128927,2020-06-02,2020-05-05,NA,14,Sachsen,14612,SK Dresden,A15-A34,W,1,0,1
128928,2020-06-02,2020-05-05,NA,14,Sachsen,14612,SK Dresden,A80+,M,1,0,1
129317,2020-06-02,2020-05-06,2020-05-02,14,Sachsen,14612,SK Dresden,A35-A59,M,1,0,1
129402,2020-06-02,2020-05-06,2020-05-03,14,Sachsen,14612,SK Dresden,A15-A34,M,1,0,1
129403,2020-06-02,2020-05-06,2020-05-03,14,Sachsen,14612,SK Dresden,A15-A34,W,1,0,1
129533,2020-06-02,2020-05-06,2020-05-05,14,Sachsen,14612,SK Dresden,A35-A59,W,1,0,1
129926,2020-06-02,2020-05-06,NA,14,Sachsen,14612,SK Dresden,A35-A59,M,1,0,0
130311,2020-06-02,2020-05-07,2020-05-03,14,Sachsen,14612,SK Dresden,A35-A59,M,1,0,1
130496,2020-06-02,2020-05-07,2020-05-05,14,Sachsen,14612,SK Dresden,A15-A34,M,1,0,1
130581,2020-06-02,2020-05-07,2020-05-14,14,Sachsen,14612,SK Dresden,A15-A34,W,1,0,1
131372,2020-06-02,2020-05-08,2020-05-08,14,Sachsen,14612,SK Dresden,A15-A34,W,1,0,1
131724,2020-06-02,2020-05-08,NA,14,Sachsen,14612,SK Dresden,A15-A34,W,2,0,2
131725,2020-06-02,2020-05-08,NA,14,Sachsen,14612,SK Dresden,A60-A79,M,1,0,1
131807,2020-06-02,2020-05-09,2020-05-01,14,Sachsen,14612,SK Dresden,A15-A34,W,1,0,1
132034,2020-06-02,2020-05-09,2020-05-09,14,Sachsen,14612,SK Dresden,A15-A34,M,1,0,1
132290,2020-06-02,2020-05-09,NA,14,Sachsen,14612,SK Dresden,A15-A34,M,2,0,2
132861,2020-06-02,2020-05-11,2020-05-09,14,Sachsen,14612,SK Dresden,A15-A34,M,1,0,1
134075,2020-06-02,2020-05-13,2020-05-09,14,Sachsen,14612,SK Dresden,A15-A34,M,1,0,1
134076,2020-06-02,2020-05-13,2020-05-09,14,Sachsen,14612,SK Dresden,A35-A59,W,1,0,1
134158,2020-06-02,2020-05-13,2020-05-11,14,Sachsen,14612,SK Dresden,A35-A59,M,1,0,1
134620,2020-06-02,2020-05-14,2020-05-02,14,Sachsen,14612,SK Dresden,A15-A34,W,1,0,1
134847,2020-06-02,2020-05-14,2020-05-12,14,Sachsen,14612,SK Dresden,A15-A34,W,1,0,1
134897,2020-06-02,2020-05-14,2020-05-14,14,Sachsen,14612,SK Dresden,A35-A59,W,1,0,1
135213,2020-06-02,2020-05-14,NA,14,Sachsen,14612,SK Dresden,A00-A04,W,1,0,1
135214,2020-06-02,2020-05-14,NA,14,Sachsen,14612,SK Dresden,A35-A59,W,1,0,1
135215,2020-06-02,2020-05-14,NA,14,Sachsen,14612,SK Dresden,A80+,M,1,0,1
135788,2020-06-02,2020-05-15,NA,14,Sachsen,14612,SK Dresden,A15-A34,W,2,0,2
135789,2020-06-02,2020-05-15,NA,14,Sachsen,14612,SK Dresden,A35-A59,M,1,0,1
135790,2020-06-02,2020-05-15,NA,14,Sachsen,14612,SK Dresden,A80+,W,1,0,0
136485,2020-06-02,2020-05-18,2020-05-13,14,Sachsen,14612,SK Dresden,A15-A34,M,1,0,1
136509,2020-06-02,2020-05-18,2020-05-14,14,Sachsen,14612,SK Dresden,A05-A14,M,1,0,1
136510,2020-06-02,2020-05-18,2020-05-14,14,Sachsen,14612,SK Dresden,A35-A59,W,1,0,1
136552,2020-06-02,2020-05-18,2020-05-16,14,Sachsen,14612,SK Dresden,A00-A04,M,1,0,1
136932,2020-06-02,2020-05-19,2020-05-15,14,Sachsen,14612,SK Dresden,A15-A34,M,1,0,1
137349,2020-06-02,2020-05-19,NA,14,Sachsen,14612,SK Dresden,A15-A34,M,1,0,1
137350,2020-06-02,2020-05-19,NA,14,Sachsen,14612,SK Dresden,A80+,M,1,0,0
137351,2020-06-02,2020-05-19,NA,14,Sachsen,14612,SK Dresden,A80+,W,1,0,0
137556,2020-06-02,2020-05-20,2020-05-16,14,Sachsen,14612,SK Dresden,A35-A59,M,1,0,1
138309,2020-06-02,2020-05-21,NA,14,Sachsen,14612,SK Dresden,A15-A34,M,1,0,0
138310,2020-06-02,2020-05-21,NA,14,Sachsen,14612,SK Dresden,A35-A59,M,1,0,0
138311,2020-06-02,2020-05-21,NA,14,Sachsen,14612,SK Dresden,A60-A79,M,1,0,0
138312,2020-06-02,2020-05-21,NA,14,Sachsen,14612,SK Dresden,A60-A79,W,1,0,0
139858,2020-06-02,2020-05-26,NA,14,Sachsen,14612,SK Dresden,A35-A59,M,1,0,0
139859,2020-06-02,2020-05-26,NA,14,Sachsen,14612,SK Dresden,A35-A59,W,1,0,0
140314,2020-06-02,2020-05-27,NA,14,Sachsen,14612,SK Dresden,A35-A59,W,1,0,0
140688,2020-06-02,2020-05-28,NA,14,Sachsen,14612,SK Dresden,A60-A79,W,1,0,0
140689,2020-06-02,2020-05-28,NA,14,Sachsen,14612,SK Dresden,A80+,W,1,0,0
